Booking 501 SR388 1; Zebes 501
Booking 502 SR388 2; Zebes 502
Booking 503 SR388 3; Zebes 503
Booking 504 SR388 4; Zebes 504
Booking 505 SR388 5; Zebes 505
Booking 506 SR388 6; Zebes 506
Booking 507 SR388 7; Zebes 507
Booking 508 SR388 8; Zebes 508
Booking 509 SR388 9; Zebes 509
Booking 510 SR388 10; Zebes 510
Booking 511 SR388 11; Zebes 511
Booking 512 SR388 12; Zebes 512
Booking 513 SR388 13; Zebes 513
Booking 514 SR388 14; Zebes 514
Booking 515 SR388 15; Zebes 515
Booking 516 SR388 16; Zebes 516
Booking 517 SR388 17; Zebes 517
Booking 518 SR388 18; Zebes 518
Booking 519 SR388 19; Zebes 519
Booking 520 SR388 20; Zebes 520
Booking 521 SR388 21; Zebes 521
Booking 522 SR388 22; Zebes 522
Booking 523 SR388 23; Zebes 523
Booking 524 SR388 24; Zebes 524
Booking 525 SR388 25; Zebes 525
Booking 526 SR388 26; Zebes 526
Booking 527 SR388 27; Zebes 527
Booking 528 SR388 28; Zebes 528
Booking 529 SR388 29; Zebes 529
Booking 530 SR388 30; Zebes 530
Booking 531 SR388 31; Zebes 531
Booking 532 SR388 32; Zebes 532
Booking 533 SR388 33; Zebes 533
Booking 534 SR388 34; Zebes 534
Booking 535 SR388 35; Zebes 535
Booking 536 SR388 36; Zebes 536
Booking 537 SR388 37; Zebes 537
Booking 538 SR388 38; Zebes 538
Booking 539 SR388 39; Zebes 539
Booking 540 SR388 40; Zebes 540
Booking 541 SR388 41; Zebes 541
Booking 542 SR388 42; Zebes 542
Booking 543 SR388 43; Zebes 543
Booking 544 SR388 44; Zebes 544
Booking 545 SR388 45; Zebes 545
Booking 546 SR388 46; Zebes 546
Booking 547 SR388 47; Zebes 547
Booking 548 SR388 48; Zebes 548
Booking 549 SR388 49; Zebes 549
Booking 550 SR388 50; Zebes 550
Booking 551 SR388 51; Zebes 551
Booking 552 SR388 52; Zebes 552
Booking 553 SR388 53; Zebes 553
Booking 554 SR388 54; Zebes 554
Booking 555 SR388 55; Zebes 555
Booking 556 SR388 56; Zebes 556
Booking 557 SR388 57; Zebes 557
Booking 558 SR388 58; Zebes 558
Booking 559 SR388 59; Zebes 559
Booking 560 SR388 60; Zebes 560
Booking 561 SR388 61; Zebes 561
Booking 562 SR388 62; Zebes 562
Booking 563 SR388 63; Zebes 563
Booking 564 SR388 64; Zebes 564
Booking 565 SR388 65; Zebes 565
Booking 566 SR388 66; Zebes 566
Booking 567 SR388 67; Zebes 567
Booking 568 SR388 68; Zebes 568
Booking 569 SR388 69; Zebes 569
Booking 570 SR388 70; Zebes 570
Booking 571 SR388 71; Zebes 571
Booking 572 SR388 72; Zebes 572
Booking 573 SR388 73; Zebes 573
Booking 574 SR388 74; Zebes 574
Booking 575 SR388 75; Zebes 575
Booking 576 SR388 76; Zebes 576
Booking 577 SR388 77; Zebes 577
Booking 578 SR388 78; Zebes 578
Booking 579 SR388 79; Zebes 579
Booking 580 SR388 80; Zebes 580
Booking 581 SR388 81; Zebes 581
Booking 582 SR388 82; Zebes 582
Booking 583 SR388 83; Zebes 583
Booking 584 SR388 84; Zebes 584
Booking 585 SR388 85; Zebes 585
Booking 586 SR388 86; Zebes 586
Booking 587 SR388 87; Zebes 587
Booking 588 SR388 88; Zebes 588
Booking 589 SR388 89; Zebes 589
Booking 590 SR388 90; Zebes 590
Booking 591 SR388 91; Zebes 591
Booking 592 SR388 92; Zebes 592
Booking 593 SR388 93; Zebes 593
Booking 594 SR388 94; Zebes 594
Booking 595 SR388 95; Zebes 595
Booking 596 SR388 96; Zebes 596
Booking 597 SR388 97; Zebes 597
Booking 598 SR388 98; Zebes 598
Booking 599 SR388 99; Zebes 599
Booking 600 SR388 100; Zebes 600
Booking 601 SR388 101; Zebes 601
Booking 602 SR388 102; Zebes 602
Booking 603 SR388 103; Zebes 603
Booking 604 SR388 104; Zebes 604
Booking 605 SR388 105; Zebes 605
Booking 606 SR388 106; Zebes 606
Booking 607 SR388 107; Zebes 607
Booking 608 SR388 108; Zebes 608
Booking 609 SR388 109; Zebes 609
Booking 610 SR388 110; Zebes 610
Booking 611 SR388 111; Zebes 611
Booking 612 SR388 112; Zebes 612
Booking 613 SR388 113; Zebes 613
Booking 614 SR388 114; Zebes 614
Booking 615 SR388 115; Zebes 615
Booking 616 SR388 116; Zebes 616
Booking 617 SR388 117; Zebes 617
Booking 618 SR388 118; Zebes 618
Booking 619 SR388 119; Zebes 619
Booking 620 SR388 120; Zebes 620
Booking 621 SR388 121; Zebes 621
Booking 622 SR388 122; Zebes 622
Booking 623 SR388 123; Zebes 623
Booking 624 SR388 124; Zebes 624
Booking 625 SR388 125; Zebes 625
Booking 626 SR388 126; Zebes 626
Booking 627 SR388 127; Zebes 627
Booking 628 SR388 128; Zebes 628
Booking 629 SR388 129; Zebes 629
Booking 630 SR388 130; Zebes 630
Booking 631 SR388 131; Zebes 631
Booking 632 SR388 132; Zebes 632
Booking 633 SR388 133; Zebes 633
Booking 634 SR388 134; Zebes 634
Booking 635 SR388 135; Zebes 635
Booking 636 SR388 136; Zebes 636
Booking 637 SR388 137; Zebes 637
Booking 638 SR388 138; Zebes 638
Booking 639 SR388 139; Zebes 639
Booking 640 SR388 140; Zebes 640
Booking 641 SR388 141; Zebes 641
Booking 642 SR388 142; Zebes 642
Booking 643 SR388 143; Zebes 643
Booking 644 SR388 144; Zebes 644
Booking 645 SR388 145; Zebes 645
Booking 646 SR388 146; Zebes 646
Booking 647 SR388 147; Zebes 647
Booking 648 SR388 148; Zebes 648
Booking 649 SR388 149; Zebes 649
Booking 650 SR388 150; Zebes 650
Booking 651 SR388 151; Zebes 651
Booking 652 SR388 152; Zebes 652
Booking 653 SR388 153; Zebes 653
Booking 654 SR388 154; Zebes 654
Booking 655 SR388 155; Zebes 655
Booking 656 SR388 156; Zebes 656
Booking 657 SR388 157; Zebes 657
Booking 658 SR388 158; Zebes 658
Booking 659 SR388 159; Zebes 659
Booking 660 SR388 160; Zebes 660
Booking 661 SR388 161; Zebes 661
Booking 662 SR388 162; Zebes 662
Booking 663 SR388 163; Zebes 663
Booking 664 SR388 164; Zebes 664
Booking 665 SR388 165; Zebes 665
Booking 666 SR388 166; Zebes 666
Booking 667 SR388 167; Zebes 667
Booking 668 SR388 168; Zebes 668
Booking 669 SR388 169; Zebes 669
Booking 670 SR388 170; Zebes 670
Booking 671 SR388 171; Zebes 671
Booking 672 SR388 172; Zebes 672
Booking 673 SR388 173; Zebes 673
Booking 674 SR388 174; Zebes 674
Booking 675 SR388 175; Zebes 675
Booking 676 SR388 176; Zebes 676
Booking 677 SR388 177; Zebes 677
Booking 678 SR388 178; Zebes 678
Booking 679 SR388 179; Zebes 679
Booking 680 SR388 180; Zebes 680
Booking 681 SR388 181; Zebes 681
Booking 682 SR388 182; Zebes 682
Booking 683 SR388 183; Zebes 683
Booking 684 SR388 184; Zebes 684
Booking 685 SR388 185; Zebes 685
Booking 686 SR388 186; Zebes 686
Booking 687 SR388 187; Zebes 687
Booking 688 SR388 188; Zebes 688
Booking 689 SR388 189; Zebes 689
Booking 690 SR388 190; Zebes 690
Booking 691 SR388 191; Zebes 691
Booking 692 SR388 192; Zebes 692
Booking 693 SR388 193; Zebes 693
Booking 694 SR388 194; Zebes 694
Booking 695 SR388 195; Zebes 695
Booking 696 SR388 196; Zebes 696
Booking 697 SR388 197; Zebes 697
Booking 698 SR388 198; Zebes 698
Booking 699 SR388 199; Zebes 699
Booking 700 SR388 200; Zebes 700
Booking 701 SR388 201; Zebes 701
Booking 702 SR388 202; Zebes 702
Booking 703 SR388 203; Zebes 703
Booking 704 SR388 204; Zebes 704
Booking 705 SR388 205; Zebes 705
Booking 706 SR388 206; Zebes 706
Booking 707 SR388 207; Zebes 707
Booking 708 SR388 208; Zebes 708
Booking 709 SR388 209; Zebes 709
Booking 710 SR388 210; Zebes 710
Booking 711 SR388 211; Zebes 711
Booking 712 SR388 212; Zebes 712
Booking 713 SR388 213; Zebes 713
Booking 714 SR388 214; Zebes 714
Booking 715 SR388 215; Zebes 715
Booking 716 SR388 216; Zebes 716
Booking 717 SR388 217; Zebes 717
Booking 718 SR388 218; Zebes 718
Booking 719 SR388 219; Zebes 719
Booking 720 SR388 220; Zebes 720
Booking 721 SR388 221; Zebes 721
Booking 722 SR388 222; Zebes 722
Booking 723 SR388 223; Zebes 723
Booking 724 SR388 224; Zebes 724
Booking 725 SR388 225; Zebes 725
Booking 726 SR388 226; Zebes 726
Booking 727 SR388 227; Zebes 727
Booking 728 SR388 228; Zebes 728
Booking 729 SR388 229; Zebes 729
Booking 730 SR388 230; Zebes 730
Booking 731 SR388 231; Zebes 731
Booking 732 SR388 232; Zebes 732
Booking 733 SR388 233; Zebes 733
Booking 734 SR388 234; Zebes 734
Booking 735 SR388 235; Zebes 735
Booking 736 SR388 236; Zebes 736
Booking 737 SR388 237; Zebes 737
Booking 738 SR388 238; Zebes 738
Booking 739 SR388 239; Zebes 739
Booking 740 SR388 240; Zebes 740
Booking 741 SR388 241; Zebes 741
Booking 742 SR388 242; Zebes 742
Booking 743 SR388 243; Zebes 743
Booking 744 SR388 244; Zebes 744
Booking 745 SR388 245; Zebes 745
Booking 746 SR388 246; Zebes 746
Booking 747 SR388 247; Zebes 747
Booking 748 SR388 248; Zebes 748
Booking 749 SR388 249; Zebes 749
Booking 750 SR388 250; Zebes 750
Booking 751 SR388 251; Zebes 751
Booking 752 SR388 252; Zebes 752
Booking 753 SR388 253; Zebes 753
Booking 754 SR388 254; Zebes 754
Booking 755 SR388 255; Zebes 755
Booking 756 SR388 256; Zebes 756
Booking 757 SR388 257; Zebes 757
Booking 758 SR388 258; Zebes 758
Booking 759 SR388 259; Zebes 759
Booking 760 SR388 260; Zebes 760
Booking 761 SR388 261; Zebes 761
Booking 762 SR388 262; Zebes 762
Booking 763 SR388 263; Zebes 763
Booking 764 SR388 264; Zebes 764
Booking 765 SR388 265; Zebes 765
Booking 766 SR388 266; Zebes 766
Booking 767 SR388 267; Zebes 767
Booking 768 SR388 268; Zebes 768
Booking 769 SR388 269; Zebes 769
Booking 770 SR388 270; Zebes 770
Booking 771 SR388 271; Zebes 771
Booking 772 SR388 272; Zebes 772
Booking 773 SR388 273; Zebes 773
Booking 774 SR388 274; Zebes 774
Booking 775 SR388 275; Zebes 775
Booking 776 SR388 276; Zebes 776
Booking 777 SR388 277; Zebes 777
Booking 778 SR388 278; Zebes 778
Booking 779 SR388 279; Zebes 779
Booking 780 SR388 280; Zebes 780
Booking 781 SR388 281; Zebes 781
Booking 782 SR388 282; Zebes 782
Booking 783 SR388 283; Zebes 783
Booking 784 SR388 284; Zebes 784
Booking 785 SR388 285; Zebes 785
Booking 786 SR388 286; Zebes 786
Booking 787 SR388 287; Zebes 787
Booking 788 SR388 288; Zebes 788
Booking 789 SR388 289; Zebes 789
Booking 790 SR388 290; Zebes 790
Booking 791 SR388 291; Zebes 791
Booking 792 SR388 292; Zebes 792
Booking 793 SR388 293; Zebes 793
Booking 794 SR388 294; Zebes 794
Booking 795 SR388 295; Zebes 795
Booking 796 SR388 296; Zebes 796
Booking 797 SR388 297; Zebes 797
Booking 798 SR388 298; Zebes 798
Booking 799 SR388 299; Zebes 799
Booking 800 SR388 300; Zebes 800
Booking 801 SR388 301; Zebes 801
Booking 802 SR388 302; Zebes 802
Booking 803 SR388 303; Zebes 803
Booking 804 SR388 304; Zebes 804
Booking 805 SR388 305; Zebes 805
Booking 806 SR388 306; Zebes 806
Booking 807 SR388 307; Zebes 807
Booking 808 SR388 308; Zebes 808
Booking 809 SR388 309; Zebes 809
Booking 810 SR388 310; Zebes 810
Booking 811 SR388 311; Zebes 811
Booking 812 SR388 312; Zebes 812
Booking 813 SR388 313; Zebes 813
Booking 814 SR388 314; Zebes 814
Booking 815 SR388 315; Zebes 815
Booking 816 SR388 316; Zebes 816
Booking 817 SR388 317; Zebes 817
Booking 818 SR388 318; Zebes 818
Booking 819 SR388 319; Zebes 819
Booking 820 SR388 320; Zebes 820
Booking 821 SR388 321; Zebes 821
Booking 822 SR388 322; Zebes 822
Booking 823 SR388 323; Zebes 823
Booking 824 SR388 324; Zebes 824
Booking 825 SR388 325; Zebes 825
Booking 826 SR388 326; Zebes 826
Booking 827 SR388 327; Zebes 827
Booking 828 SR388 328; Zebes 828
Booking 829 SR388 329; Zebes 829
Booking 830 SR388 330; Zebes 830
Booking 831 SR388 331; Zebes 831
Booking 832 SR388 332; Zebes 832
Booking 833 SR388 333; Zebes 833
Booking 834 SR388 334; Zebes 834
Booking 835 SR388 335; Zebes 835
Booking 836 SR388 336; Zebes 836
Booking 837 SR388 337; Zebes 837
Booking 838 SR388 338; Zebes 838
Booking 839 SR388 339; Zebes 839
Booking 840 SR388 340; Zebes 840
Booking 841 SR388 341; Zebes 841
Booking 842 SR388 342; Zebes 842
Booking 843 SR388 343; Zebes 843
Booking 844 SR388 344; Zebes 844
Booking 845 SR388 345; Zebes 845
Booking 846 SR388 346; Zebes 846
Booking 847 SR388 347; Zebes 847
Booking 848 SR388 348; Zebes 848
Booking 849 SR388 349; Zebes 849
Booking 850 SR388 350; Zebes 850
Booking 851 SR388 351; Zebes 851
Booking 852 SR388 352; Zebes 852
Booking 853 SR388 353; Zebes 853
Booking 854 SR388 354; Zebes 854
Booking 855 SR388 355; Zebes 855
Booking 856 SR388 356; Zebes 856
Booking 857 SR388 357; Zebes 857
Booking 858 SR388 358; Zebes 858
Booking 859 SR388 359; Zebes 859
Booking 860 SR388 360; Zebes 860
Booking 861 SR388 361; Zebes 861
Booking 862 SR388 362; Zebes 862
Booking 863 SR388 363; Zebes 863
Booking 864 SR388 364; Zebes 864
Booking 865 SR388 365; Zebes 865
Booking 866 SR388 366; Zebes 866
Booking 867 SR388 367; Zebes 867
Booking 868 SR388 368; Zebes 868
Booking 869 SR388 369; Zebes 869
Booking 870 SR388 370; Zebes 870
Booking 871 SR388 371; Zebes 871
Booking 872 SR388 372; Zebes 872
Booking 873 SR388 373; Zebes 873
Booking 874 SR388 374; Zebes 874
Booking 875 SR388 375; Zebes 875
Booking 876 SR388 376; Zebes 876
Booking 877 SR388 377; Zebes 877
Booking 878 SR388 378; Zebes 878
Booking 879 SR388 379; Zebes 879
Booking 880 SR388 380; Zebes 880
Booking 881 SR388 381; Zebes 881
Booking 882 SR388 382; Zebes 882
Booking 883 SR388 383; Zebes 883
Booking 884 SR388 384; Zebes 884
Booking 885 SR388 385; Zebes 885
Booking 886 SR388 386; Zebes 886
Booking 887 SR388 387; Zebes 887
Booking 888 SR388 388; Zebes 888
Booking 889 SR388 389; Zebes 889
Booking 890 SR388 390; Zebes 890
Booking 891 SR388 391; Zebes 891
Booking 892 SR388 392; Zebes 892
Booking 893 SR388 393; Zebes 893
Booking 894 SR388 394; Zebes 894
Booking 895 SR388 395; Zebes 895
Booking 896 SR388 396; Zebes 896
Booking 897 SR388 397; Zebes 897
Booking 898 SR388 398; Zebes 898
Booking 899 SR388 399; Zebes 899
Booking 900 SR388 400; Zebes 900
Booking 901 SR388 401; Zebes 901
Booking 902 SR388 402; Zebes 902
Booking 903 SR388 403; Zebes 903
Booking 904 SR388 404; Zebes 904
Booking 905 SR388 405; Zebes 905
Booking 906 SR388 406; Zebes 906
Booking 907 SR388 407; Zebes 907
Booking 908 SR388 408; Zebes 908
Booking 909 SR388 409; Zebes 909
Booking 910 SR388 410; Zebes 910
Booking 911 SR388 411; Zebes 911
Booking 912 SR388 412; Zebes 912
Booking 913 SR388 413; Zebes 913
Booking 914 SR388 414; Zebes 914
Booking 915 SR388 415; Zebes 915
Booking 916 SR388 416; Zebes 916
Booking 917 SR388 417; Zebes 917
Booking 918 SR388 418; Zebes 918
Booking 919 SR388 419; Zebes 919
Booking 920 SR388 420; Zebes 920
Booking 921 SR388 421; Zebes 921
Booking 922 SR388 422; Zebes 922
Booking 923 SR388 423; Zebes 923
Booking 924 SR388 424; Zebes 924
Booking 925 SR388 425; Zebes 925
Booking 926 SR388 426; Zebes 926
Booking 927 SR388 427; Zebes 927
Booking 928 SR388 428; Zebes 928
Booking 929 SR388 429; Zebes 929
Booking 930 SR388 430; Zebes 930
Booking 931 SR388 431; Zebes 931
Booking 932 SR388 432; Zebes 932
Booking 933 SR388 433; Zebes 933
Booking 934 SR388 434; Zebes 934
Booking 935 SR388 435; Zebes 935
Booking 936 SR388 436; Zebes 936
Booking 937 SR388 437; Zebes 937
Booking 938 SR388 438; Zebes 938
Booking 939 SR388 439; Zebes 939
Booking 940 SR388 440; Zebes 940
Booking 941 SR388 441; Zebes 941
Booking 942 SR388 442; Zebes 942
Booking 943 SR388 443; Zebes 943
Booking 944 SR388 444; Zebes 944
Booking 945 SR388 445; Zebes 945
Booking 946 SR388 446; Zebes 946
Booking 947 SR388 447; Zebes 947
Booking 948 SR388 448; Zebes 948
Booking 949 SR388 449; Zebes 949
Booking 950 SR388 450; Zebes 950
Booking 951 SR388 451; Zebes 951
Booking 952 SR388 452; Zebes 952
Booking 953 SR388 453; Zebes 953
Booking 954 SR388 454; Zebes 954
Booking 955 SR388 455; Zebes 955
Booking 956 SR388 456; Zebes 956
Booking 957 SR388 457; Zebes 957
Booking 958 SR388 458; Zebes 958
Booking 959 SR388 459; Zebes 959
Booking 960 SR388 460; Zebes 960
Booking 961 SR388 461; Zebes 961
Booking 962 SR388 462; Zebes 962
Booking 963 SR388 463; Zebes 963
Booking 964 SR388 464; Zebes 964
Booking 965 SR388 465; Zebes 965
Booking 966 SR388 466; Zebes 966
Booking 967 SR388 467; Zebes 967
Booking 968 SR388 468; Zebes 968
Booking 969 SR388 469; Zebes 969
Booking 970 SR388 470; Zebes 970
Booking 971 SR388 471; Zebes 971
Booking 972 SR388 472; Zebes 972
Booking 973 SR388 473; Zebes 973
Booking 974 SR388 474; Zebes 974
Booking 975 SR388 475; Zebes 975
Booking 976 SR388 476; Zebes 976
Booking 977 SR388 477; Zebes 977
Booking 978 SR388 478; Zebes 978
Booking 979 SR388 479; Zebes 979
Booking 980 SR388 480; Zebes 980
Booking 981 SR388 481; Zebes 981
Booking 982 SR388 482; Zebes 982
Booking 983 SR388 483; Zebes 983
Booking 984 SR388 484; Zebes 984
Booking 985 SR388 485; Zebes 985
Booking 986 SR388 486; Zebes 986
Booking 987 SR388 487; Zebes 987
Booking 988 SR388 488; Zebes 988
Booking 989 SR388 489; Zebes 989
Booking 990 SR388 490; Zebes 990
Booking 991 SR388 491; Zebes 991
Booking 992 SR388 492; Zebes 992
Booking 993 SR388 493; Zebes 993
Booking 994 SR388 494; Zebes 994
Booking 995 SR388 495; Zebes 995
Booking 996 SR388 496; Zebes 996
Booking 997 SR388 497; Zebes 997
Booking 998 SR388 498; Zebes 998
Booking 999 SR388 499; Zebes 999
Booking 1000 SR388 500; Zebes 1000
Booking rejected
Booking rejected
Booking rejected
Booking rejected
Booking rejected
Booking rejected
Booking rejected
Booking rejected
Booking rejected
Booking rejected
Booking rejected
Booking rejected
Booking rejected
Booking rejected
Booking rejected
Booking rejected
Booking rejected
Booking rejected
Booking rejected
Booking rejected
Booking rejected
Booking rejected
Booking rejected
Booking rejected
Booking rejected
Booking rejected
Booking rejected
Booking rejected
Booking rejected
Booking rejected
Booking rejected
Booking rejected
Booking rejected
Booking rejected
Booking rejected
Booking rejected
Booking rejected
Booking rejected
Booking rejected
Booking rejected
Booking rejected
Booking rejected
Booking rejected
Booking rejected
Booking rejected
Booking rejected
Booking rejected
Booking rejected
Booking rejected
Booking rejected
Booking rejected
Booking rejected
Booking rejected
Booking rejected
Booking rejected
Booking rejected
Booking rejected
Booking rejected
Booking rejected
Booking rejected
Booking rejected
Booking rejected
Booking rejected
Booking rejected
Booking rejected
Booking rejected
Booking rejected
Booking rejected
Booking rejected
Booking rejected
Booking rejected
Booking rejected
Booking rejected
Booking rejected
Booking rejected
Booking rejected
Booking rejected
Booking rejected
Booking rejected
Booking rejected
Booking rejected
Booking rejected
Booking rejected
Booking rejected
Booking rejected
Booking rejected
Booking rejected
Booking rejected
Booking rejected
Booking rejected
Booking rejected
Booking rejected
Booking rejected
Booking rejected
Booking rejected
Booking rejected
Booking rejected
Booking rejected
Booking rejected
Booking rejected
Booking rejected
Booking rejected
Booking rejected
Booking rejected
Booking rejected
Booking rejected
Booking rejected
Booking rejected
Booking rejected
Booking rejected
Booking rejected
Booking rejected
Booking rejected
Booking rejected
Booking rejected
Booking rejected
Booking rejected
Booking rejected
Booking rejected
Booking rejected
Booking rejected
Booking rejected
Booking rejected
Booking rejected
Booking rejected
Booking rejected
Booking rejected
Booking rejected
Booking rejected
Booking rejected
Booking rejected
Booking rejected
Booking rejected
Booking rejected
Booking rejected
Booking rejected
Booking rejected
Booking rejected
Booking rejected
Booking rejected
Booking rejected
Booking rejected
Booking rejected
Booking rejected
Booking rejected
Booking rejected
Booking rejected
Booking rejected
Booking rejected
Booking rejected
Booking rejected
Booking rejected
Booking rejected
Booking rejected
Booking rejected
Booking rejected
Booking rejected
Booking rejected
Booking rejected
Booking rejected
Booking rejected
Booking rejected
Booking rejected
Booking rejected
Booking rejected
Booking rejected
Booking rejected
Booking rejected
Booking rejected
Booking rejected
Booking rejected
Booking rejected
Booking rejected
Booking rejected
Booking rejected
Booking rejected
Booking rejected
Booking rejected
Booking rejected
Booking rejected
Booking rejected
Booking rejected
Booking rejected
Booking rejected
Booking rejected
Booking rejected
Booking rejected
Booking rejected
Booking rejected
Booking rejected
Booking rejected
Booking rejected
Booking rejected
Booking rejected
Booking rejected
Booking rejected
Booking rejected
Booking rejected
Booking rejected
Booking rejected
Booking rejected
Booking rejected
Booking rejected
Booking rejected
Booking rejected
Booking rejected
Booking rejected
Booking rejected
Booking rejected
Booking rejected
Booking rejected
Booking rejected
Booking rejected
Booking rejected
Booking rejected
Booking rejected
Booking rejected
Booking rejected
Booking rejected
Booking rejected
Booking rejected
Booking rejected
Booking rejected
Booking rejected
Booking rejected
Booking rejected
Booking rejected
Booking rejected
Booking rejected
Booking rejected
Booking rejected
Booking rejected
Booking rejected
Booking rejected
Booking rejected
Booking rejected
Booking rejected
Booking rejected
Booking rejected
Booking rejected
Booking rejected
Booking rejected
Booking rejected
Booking rejected
Booking rejected
Booking rejected
Booking rejected
Booking rejected
Booking rejected
Booking rejected
Booking rejected
Booking rejected
Booking rejected
Booking rejected
Booking rejected
Booking rejected
Booking rejected
Booking rejected
Booking rejected
Booking rejected
Booking rejected
Booking rejected
Booking rejected
Booking rejected
Booking rejected
Booking rejected
Booking rejected
Booking rejected
Booking rejected
Booking rejected
Booking rejected
Booking rejected
Booking rejected
Booking rejected
Booking rejected
Booking rejected
Booking rejected
Booking rejected
Booking rejected
Booking rejected
Booking rejected
Booking rejected
Booking rejected
Booking rejected
Booking rejected
Booking rejected
Booking rejected
Booking rejected
Booking rejected
Booking rejected
Booking rejected
Booking rejected
Booking rejected
Booking rejected
Booking rejected
Booking rejected
Booking rejected
Booking rejected
Booking rejected
Booking rejected
Booking rejected
Booking rejected
Booking rejected
Booking rejected
Booking rejected
Booking rejected
Booking rejected
Booking rejected
Booking rejected
Booking rejected
Booking rejected
Booking rejected
Booking rejected
Booking rejected
Booking rejected
Booking rejected
Booking rejected
Booking rejected
Booking rejected
Booking rejected
Booking rejected
Booking rejected
Booking rejected
Booking rejected
Booking rejected
Booking rejected
Booking rejected
Booking rejected
Booking rejected
Booking rejected
Booking rejected
Booking rejected
Booking rejected
Booking rejected
Booking rejected
Booking rejected
Booking rejected
Booking rejected
Booking rejected
Booking rejected
Booking rejected
Booking rejected
Booking rejected
Booking rejected
Booking rejected
Booking rejected
Booking rejected
Booking rejected
Booking rejected
Booking rejected
Booking rejected
Booking rejected
Booking rejected
Booking rejected
Booking rejected
Booking rejected
Booking rejected
Booking rejected
Booking rejected
Booking rejected
Booking rejected
Booking rejected
Booking rejected
Booking rejected
Booking rejected
Booking rejected
Booking rejected
Booking rejected
Booking rejected
Booking rejected
Booking rejected
Booking rejected
Booking rejected
Booking rejected
Booking rejected
Booking rejected
Booking rejected
Booking rejected
Booking rejected
Booking rejected
Booking rejected
Booking rejected
Booking rejected
Booking rejected
Booking rejected
Booking rejected
Booking rejected
Booking rejected
Booking rejected
Booking rejected
Booking rejected
Booking rejected
Booking rejected
Booking rejected
Booking rejected
Booking rejected
Booking rejected
Booking rejected
Booking rejected
Booking rejected
Booking rejected
Booking rejected
Booking rejected
Booking rejected
Booking rejected
Booking rejected
Booking rejected
Booking rejected
Booking rejected
Booking rejected
Booking rejected
Booking rejected
Booking rejected
Booking rejected
Booking rejected
Booking rejected
Booking rejected
Booking rejected
Booking rejected
Booking rejected
Booking rejected
Booking rejected
Booking rejected
Booking rejected
Booking rejected
Booking rejected
Booking rejected
Booking rejected
Booking rejected
Booking rejected
Booking rejected
Booking rejected
Booking rejected
Booking rejected
Booking rejected
Booking rejected
Booking rejected
Booking rejected
Booking rejected
Booking rejected
Booking rejected
Booking rejected
Booking rejected
Booking rejected
Booking rejected
Booking rejected
Booking rejected
Booking rejected
Booking rejected
Booking rejected
Booking rejected
Booking rejected
Booking rejected
Booking rejected
Booking rejected
Booking rejected
Booking rejected
Booking rejected
Booking rejected
Booking rejected
Booking rejected
Booking rejected
Booking rejected
Booking rejected
Booking rejected
Booking rejected
Booking rejected
Booking rejected
Booking rejected
Booking rejected
Booking rejected
Booking rejected
Booking rejected
Booking rejected
Booking rejected
Booking rejected
Booking rejected
Booking rejected
Booking rejected
Booking rejected
Booking rejected
Booking rejected
Booking rejected
Booking rejected
Booking rejected
Booking rejected
Booking rejected
Booking rejected
Booking rejected
Booking rejected
Booking rejected
Booking rejected
Booking rejected
Booking rejected
Booking rejected
Booking rejected
Booking rejected
Booking rejected
Booking rejected
Booking rejected
SR388 1 23:00 Mar 25 12:00 Mar 26
SR388 2 23:00 Mar 25 12:00 Mar 26
SR388 3 23:00 Mar 25 12:00 Mar 26
SR388 4 23:00 Mar 25 12:00 Mar 26
SR388 5 23:00 Mar 25 12:00 Mar 26
SR388 6 23:00 Mar 25 12:00 Mar 26
SR388 7 23:00 Mar 25 12:00 Mar 26
SR388 8 23:00 Mar 25 12:00 Mar 26
SR388 9 23:00 Mar 25 12:00 Mar 26
SR388 10 23:00 Mar 25 12:00 Mar 26
SR388 11 23:00 Mar 25 12:00 Mar 26
SR388 12 23:00 Mar 25 12:00 Mar 26
SR388 13 23:00 Mar 25 12:00 Mar 26
SR388 14 23:00 Mar 25 12:00 Mar 26
SR388 15 23:00 Mar 25 12:00 Mar 26
SR388 16 23:00 Mar 25 12:00 Mar 26
SR388 17 23:00 Mar 25 12:00 Mar 26
SR388 18 23:00 Mar 25 12:00 Mar 26
SR388 19 23:00 Mar 25 12:00 Mar 26
SR388 20 23:00 Mar 25 12:00 Mar 26
SR388 21 23:00 Mar 25 12:00 Mar 26
SR388 22 23:00 Mar 25 12:00 Mar 26
SR388 23 23:00 Mar 25 12:00 Mar 26
SR388 24 23:00 Mar 25 12:00 Mar 26
SR388 25 23:00 Mar 25 12:00 Mar 26
SR388 26 23:00 Mar 25 12:00 Mar 26
SR388 27 23:00 Mar 25 12:00 Mar 26
SR388 28 23:00 Mar 25 12:00 Mar 26
SR388 29 23:00 Mar 25 12:00 Mar 26
SR388 30 23:00 Mar 25 12:00 Mar 26
SR388 31 23:00 Mar 25 12:00 Mar 26
SR388 32 23:00 Mar 25 12:00 Mar 26
SR388 33 23:00 Mar 25 12:00 Mar 26
SR388 34 23:00 Mar 25 12:00 Mar 26
SR388 35 23:00 Mar 25 12:00 Mar 26
SR388 36 23:00 Mar 25 12:00 Mar 26
SR388 37 23:00 Mar 25 12:00 Mar 26
SR388 38 23:00 Mar 25 12:00 Mar 26
SR388 39 23:00 Mar 25 12:00 Mar 26
SR388 40 23:00 Mar 25 12:00 Mar 26
SR388 41 23:00 Mar 25 12:00 Mar 26
SR388 42 23:00 Mar 25 12:00 Mar 26
SR388 43 23:00 Mar 25 12:00 Mar 26
SR388 44 23:00 Mar 25 12:00 Mar 26
SR388 45 23:00 Mar 25 12:00 Mar 26
SR388 46 23:00 Mar 25 12:00 Mar 26
SR388 47 23:00 Mar 25 12:00 Mar 26
SR388 48 23:00 Mar 25 12:00 Mar 26
SR388 49 23:00 Mar 25 12:00 Mar 26
SR388 50 23:00 Mar 25 12:00 Mar 26
SR388 51 23:00 Mar 25 12:00 Mar 26
SR388 52 23:00 Mar 25 12:00 Mar 26
SR388 53 23:00 Mar 25 12:00 Mar 26
SR388 54 23:00 Mar 25 12:00 Mar 26
SR388 55 23:00 Mar 25 12:00 Mar 26
SR388 56 23:00 Mar 25 12:00 Mar 26
SR388 57 23:00 Mar 25 12:00 Mar 26
SR388 58 23:00 Mar 25 12:00 Mar 26
SR388 59 23:00 Mar 25 12:00 Mar 26
SR388 60 23:00 Mar 25 12:00 Mar 26
SR388 61 23:00 Mar 25 12:00 Mar 26
SR388 62 23:00 Mar 25 12:00 Mar 26
SR388 63 23:00 Mar 25 12:00 Mar 26
SR388 64 23:00 Mar 25 12:00 Mar 26
SR388 65 23:00 Mar 25 12:00 Mar 26
SR388 66 23:00 Mar 25 12:00 Mar 26
SR388 67 23:00 Mar 25 12:00 Mar 26
SR388 68 23:00 Mar 25 12:00 Mar 26
SR388 69 23:00 Mar 25 12:00 Mar 26
SR388 70 23:00 Mar 25 12:00 Mar 26
SR388 71 23:00 Mar 25 12:00 Mar 26
SR388 72 23:00 Mar 25 12:00 Mar 26
SR388 73 23:00 Mar 25 12:00 Mar 26
SR388 74 23:00 Mar 25 12:00 Mar 26
SR388 75 23:00 Mar 25 12:00 Mar 26
SR388 76 23:00 Mar 25 12:00 Mar 26
SR388 77 23:00 Mar 25 12:00 Mar 26
SR388 78 23:00 Mar 25 12:00 Mar 26
SR388 79 23:00 Mar 25 12:00 Mar 26
SR388 80 23:00 Mar 25 12:00 Mar 26
SR388 81 23:00 Mar 25 12:00 Mar 26
SR388 82 23:00 Mar 25 12:00 Mar 26
SR388 83 23:00 Mar 25 12:00 Mar 26
SR388 84 23:00 Mar 25 12:00 Mar 26
SR388 85 23:00 Mar 25 12:00 Mar 26
SR388 86 23:00 Mar 25 12:00 Mar 26
SR388 87 23:00 Mar 25 12:00 Mar 26
SR388 88 23:00 Mar 25 12:00 Mar 26
SR388 89 23:00 Mar 25 12:00 Mar 26
SR388 90 23:00 Mar 25 12:00 Mar 26
SR388 91 23:00 Mar 25 12:00 Mar 26
SR388 92 23:00 Mar 25 12:00 Mar 26
SR388 93 23:00 Mar 25 12:00 Mar 26
SR388 94 23:00 Mar 25 12:00 Mar 26
SR388 95 23:00 Mar 25 12:00 Mar 26
SR388 96 23:00 Mar 25 12:00 Mar 26
SR388 97 23:00 Mar 25 12:00 Mar 26
SR388 98 23:00 Mar 25 12:00 Mar 26
SR388 99 23:00 Mar 25 12:00 Mar 26
SR388 100 23:00 Mar 25 12:00 Mar 26
SR388 101 23:00 Mar 25 12:00 Mar 26
SR388 102 23:00 Mar 25 12:00 Mar 26
SR388 103 23:00 Mar 25 12:00 Mar 26
SR388 104 23:00 Mar 25 12:00 Mar 26
SR388 105 23:00 Mar 25 12:00 Mar 26
SR388 106 23:00 Mar 25 12:00 Mar 26
SR388 107 23:00 Mar 25 12:00 Mar 26
SR388 108 23:00 Mar 25 12:00 Mar 26
SR388 109 23:00 Mar 25 12:00 Mar 26
SR388 110 23:00 Mar 25 12:00 Mar 26
SR388 111 23:00 Mar 25 12:00 Mar 26
SR388 112 23:00 Mar 25 12:00 Mar 26
SR388 113 23:00 Mar 25 12:00 Mar 26
SR388 114 23:00 Mar 25 12:00 Mar 26
SR388 115 23:00 Mar 25 12:00 Mar 26
SR388 116 23:00 Mar 25 12:00 Mar 26
SR388 117 23:00 Mar 25 12:00 Mar 26
SR388 118 23:00 Mar 25 12:00 Mar 26
SR388 119 23:00 Mar 25 12:00 Mar 26
SR388 120 23:00 Mar 25 12:00 Mar 26
SR388 121 23:00 Mar 25 12:00 Mar 26
SR388 122 23:00 Mar 25 12:00 Mar 26
SR388 123 23:00 Mar 25 12:00 Mar 26
SR388 124 23:00 Mar 25 12:00 Mar 26
SR388 125 23:00 Mar 25 12:00 Mar 26
SR388 126 23:00 Mar 25 12:00 Mar 26
SR388 127 23:00 Mar 25 12:00 Mar 26
SR388 128 23:00 Mar 25 12:00 Mar 26
SR388 129 23:00 Mar 25 12:00 Mar 26
SR388 130 23:00 Mar 25 12:00 Mar 26
SR388 131 23:00 Mar 25 12:00 Mar 26
SR388 132 23:00 Mar 25 12:00 Mar 26
SR388 133 23:00 Mar 25 12:00 Mar 26
SR388 134 23:00 Mar 25 12:00 Mar 26
SR388 135 23:00 Mar 25 12:00 Mar 26
SR388 136 23:00 Mar 25 12:00 Mar 26
SR388 137 23:00 Mar 25 12:00 Mar 26
SR388 138 23:00 Mar 25 12:00 Mar 26
SR388 139 23:00 Mar 25 12:00 Mar 26
SR388 140 23:00 Mar 25 12:00 Mar 26
SR388 141 23:00 Mar 25 12:00 Mar 26
SR388 142 23:00 Mar 25 12:00 Mar 26
SR388 143 23:00 Mar 25 12:00 Mar 26
SR388 144 23:00 Mar 25 12:00 Mar 26
SR388 145 23:00 Mar 25 12:00 Mar 26
SR388 146 23:00 Mar 25 12:00 Mar 26
SR388 147 23:00 Mar 25 12:00 Mar 26
SR388 148 23:00 Mar 25 12:00 Mar 26
SR388 149 23:00 Mar 25 12:00 Mar 26
SR388 150 23:00 Mar 25 12:00 Mar 26
SR388 151 23:00 Mar 25 12:00 Mar 26
SR388 152 23:00 Mar 25 12:00 Mar 26
SR388 153 23:00 Mar 25 12:00 Mar 26
SR388 154 23:00 Mar 25 12:00 Mar 26
SR388 155 23:00 Mar 25 12:00 Mar 26
SR388 156 23:00 Mar 25 12:00 Mar 26
SR388 157 23:00 Mar 25 12:00 Mar 26
SR388 158 23:00 Mar 25 12:00 Mar 26
SR388 159 23:00 Mar 25 12:00 Mar 26
SR388 160 23:00 Mar 25 12:00 Mar 26
SR388 161 23:00 Mar 25 12:00 Mar 26
SR388 162 23:00 Mar 25 12:00 Mar 26
SR388 163 23:00 Mar 25 12:00 Mar 26
SR388 164 23:00 Mar 25 12:00 Mar 26
SR388 165 23:00 Mar 25 12:00 Mar 26
SR388 166 23:00 Mar 25 12:00 Mar 26
SR388 167 23:00 Mar 25 12:00 Mar 26
SR388 168 23:00 Mar 25 12:00 Mar 26
SR388 169 23:00 Mar 25 12:00 Mar 26
SR388 170 23:00 Mar 25 12:00 Mar 26
SR388 171 23:00 Mar 25 12:00 Mar 26
SR388 172 23:00 Mar 25 12:00 Mar 26
SR388 173 23:00 Mar 25 12:00 Mar 26
SR388 174 23:00 Mar 25 12:00 Mar 26
SR388 175 23:00 Mar 25 12:00 Mar 26
SR388 176 23:00 Mar 25 12:00 Mar 26
SR388 177 23:00 Mar 25 12:00 Mar 26
SR388 178 23:00 Mar 25 12:00 Mar 26
SR388 179 23:00 Mar 25 12:00 Mar 26
SR388 180 23:00 Mar 25 12:00 Mar 26
SR388 181 23:00 Mar 25 12:00 Mar 26
SR388 182 23:00 Mar 25 12:00 Mar 26
SR388 183 23:00 Mar 25 12:00 Mar 26
SR388 184 23:00 Mar 25 12:00 Mar 26
SR388 185 23:00 Mar 25 12:00 Mar 26
SR388 186 23:00 Mar 25 12:00 Mar 26
SR388 187 23:00 Mar 25 12:00 Mar 26
SR388 188 23:00 Mar 25 12:00 Mar 26
SR388 189 23:00 Mar 25 12:00 Mar 26
SR388 190 23:00 Mar 25 12:00 Mar 26
SR388 191 23:00 Mar 25 12:00 Mar 26
SR388 192 23:00 Mar 25 12:00 Mar 26
SR388 193 23:00 Mar 25 12:00 Mar 26
SR388 194 23:00 Mar 25 12:00 Mar 26
SR388 195 23:00 Mar 25 12:00 Mar 26
SR388 196 23:00 Mar 25 12:00 Mar 26
SR388 197 23:00 Mar 25 12:00 Mar 26
SR388 198 23:00 Mar 25 12:00 Mar 26
SR388 199 23:00 Mar 25 12:00 Mar 26
SR388 200 23:00 Mar 25 12:00 Mar 26
SR388 201 23:00 Mar 25 12:00 Mar 26
SR388 202 23:00 Mar 25 12:00 Mar 26
SR388 203 23:00 Mar 25 12:00 Mar 26
SR388 204 23:00 Mar 25 12:00 Mar 26
SR388 205 23:00 Mar 25 12:00 Mar 26
SR388 206 23:00 Mar 25 12:00 Mar 26
SR388 207 23:00 Mar 25 12:00 Mar 26
SR388 208 23:00 Mar 25 12:00 Mar 26
SR388 209 23:00 Mar 25 12:00 Mar 26
SR388 210 23:00 Mar 25 12:00 Mar 26
SR388 211 23:00 Mar 25 12:00 Mar 26
SR388 212 23:00 Mar 25 12:00 Mar 26
SR388 213 23:00 Mar 25 12:00 Mar 26
SR388 214 23:00 Mar 25 12:00 Mar 26
SR388 215 23:00 Mar 25 12:00 Mar 26
SR388 216 23:00 Mar 25 12:00 Mar 26
SR388 217 23:00 Mar 25 12:00 Mar 26
SR388 218 23:00 Mar 25 12:00 Mar 26
SR388 219 23:00 Mar 25 12:00 Mar 26
SR388 220 23:00 Mar 25 12:00 Mar 26
SR388 221 23:00 Mar 25 12:00 Mar 26
SR388 222 23:00 Mar 25 12:00 Mar 26
SR388 223 23:00 Mar 25 12:00 Mar 26
SR388 224 23:00 Mar 25 12:00 Mar 26
SR388 225 23:00 Mar 25 12:00 Mar 26
SR388 226 23:00 Mar 25 12:00 Mar 26
SR388 227 23:00 Mar 25 12:00 Mar 26
SR388 228 23:00 Mar 25 12:00 Mar 26
SR388 229 23:00 Mar 25 12:00 Mar 26
SR388 230 23:00 Mar 25 12:00 Mar 26
SR388 231 23:00 Mar 25 12:00 Mar 26
SR388 232 23:00 Mar 25 12:00 Mar 26
SR388 233 23:00 Mar 25 12:00 Mar 26
SR388 234 23:00 Mar 25 12:00 Mar 26
SR388 235 23:00 Mar 25 12:00 Mar 26
SR388 236 23:00 Mar 25 12:00 Mar 26
SR388 237 23:00 Mar 25 12:00 Mar 26
SR388 238 23:00 Mar 25 12:00 Mar 26
SR388 239 23:00 Mar 25 12:00 Mar 26
SR388 240 23:00 Mar 25 12:00 Mar 26
SR388 241 23:00 Mar 25 12:00 Mar 26
SR388 242 23:00 Mar 25 12:00 Mar 26
SR388 243 23:00 Mar 25 12:00 Mar 26
SR388 244 23:00 Mar 25 12:00 Mar 26
SR388 245 23:00 Mar 25 12:00 Mar 26
SR388 246 23:00 Mar 25 12:00 Mar 26
SR388 247 23:00 Mar 25 12:00 Mar 26
SR388 248 23:00 Mar 25 12:00 Mar 26
SR388 249 23:00 Mar 25 12:00 Mar 26
SR388 250 23:00 Mar 25 12:00 Mar 26
SR388 251 23:00 Mar 25 12:00 Mar 26
SR388 252 23:00 Mar 25 12:00 Mar 26
SR388 253 23:00 Mar 25 12:00 Mar 26
SR388 254 23:00 Mar 25 12:00 Mar 26
SR388 255 23:00 Mar 25 12:00 Mar 26
SR388 256 23:00 Mar 25 12:00 Mar 26
SR388 257 23:00 Mar 25 12:00 Mar 26
SR388 258 23:00 Mar 25 12:00 Mar 26
SR388 259 23:00 Mar 25 12:00 Mar 26
SR388 260 23:00 Mar 25 12:00 Mar 26
SR388 261 23:00 Mar 25 12:00 Mar 26
SR388 262 23:00 Mar 25 12:00 Mar 26
SR388 263 23:00 Mar 25 12:00 Mar 26
SR388 264 23:00 Mar 25 12:00 Mar 26
SR388 265 23:00 Mar 25 12:00 Mar 26
SR388 266 23:00 Mar 25 12:00 Mar 26
SR388 267 23:00 Mar 25 12:00 Mar 26
SR388 268 23:00 Mar 25 12:00 Mar 26
SR388 269 23:00 Mar 25 12:00 Mar 26
SR388 270 23:00 Mar 25 12:00 Mar 26
SR388 271 23:00 Mar 25 12:00 Mar 26
SR388 272 23:00 Mar 25 12:00 Mar 26
SR388 273 23:00 Mar 25 12:00 Mar 26
SR388 274 23:00 Mar 25 12:00 Mar 26
SR388 275 23:00 Mar 25 12:00 Mar 26
SR388 276 23:00 Mar 25 12:00 Mar 26
SR388 277 23:00 Mar 25 12:00 Mar 26
SR388 278 23:00 Mar 25 12:00 Mar 26
SR388 279 23:00 Mar 25 12:00 Mar 26
SR388 280 23:00 Mar 25 12:00 Mar 26
SR388 281 23:00 Mar 25 12:00 Mar 26
SR388 282 23:00 Mar 25 12:00 Mar 26
SR388 283 23:00 Mar 25 12:00 Mar 26
SR388 284 23:00 Mar 25 12:00 Mar 26
SR388 285 23:00 Mar 25 12:00 Mar 26
SR388 286 23:00 Mar 25 12:00 Mar 26
SR388 287 23:00 Mar 25 12:00 Mar 26
SR388 288 23:00 Mar 25 12:00 Mar 26
SR388 289 23:00 Mar 25 12:00 Mar 26
SR388 290 23:00 Mar 25 12:00 Mar 26
SR388 291 23:00 Mar 25 12:00 Mar 26
SR388 292 23:00 Mar 25 12:00 Mar 26
SR388 293 23:00 Mar 25 12:00 Mar 26
SR388 294 23:00 Mar 25 12:00 Mar 26
SR388 295 23:00 Mar 25 12:00 Mar 26
SR388 296 23:00 Mar 25 12:00 Mar 26
SR388 297 23:00 Mar 25 12:00 Mar 26
SR388 298 23:00 Mar 25 12:00 Mar 26
SR388 299 23:00 Mar 25 12:00 Mar 26
SR388 300 23:00 Mar 25 12:00 Mar 26
SR388 301 23:00 Mar 25 12:00 Mar 26
SR388 302 23:00 Mar 25 12:00 Mar 26
SR388 303 23:00 Mar 25 12:00 Mar 26
SR388 304 23:00 Mar 25 12:00 Mar 26
SR388 305 23:00 Mar 25 12:00 Mar 26
SR388 306 23:00 Mar 25 12:00 Mar 26
SR388 307 23:00 Mar 25 12:00 Mar 26
SR388 308 23:00 Mar 25 12:00 Mar 26
SR388 309 23:00 Mar 25 12:00 Mar 26
SR388 310 23:00 Mar 25 12:00 Mar 26
SR388 311 23:00 Mar 25 12:00 Mar 26
SR388 312 23:00 Mar 25 12:00 Mar 26
SR388 313 23:00 Mar 25 12:00 Mar 26
SR388 314 23:00 Mar 25 12:00 Mar 26
SR388 315 23:00 Mar 25 12:00 Mar 26
SR388 316 23:00 Mar 25 12:00 Mar 26
SR388 317 23:00 Mar 25 12:00 Mar 26
SR388 318 23:00 Mar 25 12:00 Mar 26
SR388 319 23:00 Mar 25 12:00 Mar 26
SR388 320 23:00 Mar 25 12:00 Mar 26
SR388 321 23:00 Mar 25 12:00 Mar 26
SR388 322 23:00 Mar 25 12:00 Mar 26
SR388 323 23:00 Mar 25 12:00 Mar 26
SR388 324 23:00 Mar 25 12:00 Mar 26
SR388 325 23:00 Mar 25 12:00 Mar 26
SR388 326 23:00 Mar 25 12:00 Mar 26
SR388 327 23:00 Mar 25 12:00 Mar 26
SR388 328 23:00 Mar 25 12:00 Mar 26
SR388 329 23:00 Mar 25 12:00 Mar 26
SR388 330 23:00 Mar 25 12:00 Mar 26
SR388 331 23:00 Mar 25 12:00 Mar 26
SR388 332 23:00 Mar 25 12:00 Mar 26
SR388 333 23:00 Mar 25 12:00 Mar 26
SR388 334 23:00 Mar 25 12:00 Mar 26
SR388 335 23:00 Mar 25 12:00 Mar 26
SR388 336 23:00 Mar 25 12:00 Mar 26
SR388 337 23:00 Mar 25 12:00 Mar 26
SR388 338 23:00 Mar 25 12:00 Mar 26
SR388 339 23:00 Mar 25 12:00 Mar 26
SR388 340 23:00 Mar 25 12:00 Mar 26
SR388 341 23:00 Mar 25 12:00 Mar 26
SR388 342 23:00 Mar 25 12:00 Mar 26
SR388 343 23:00 Mar 25 12:00 Mar 26
SR388 344 23:00 Mar 25 12:00 Mar 26
SR388 345 23:00 Mar 25 12:00 Mar 26
SR388 346 23:00 Mar 25 12:00 Mar 26
SR388 347 23:00 Mar 25 12:00 Mar 26
SR388 348 23:00 Mar 25 12:00 Mar 26
SR388 349 23:00 Mar 25 12:00 Mar 26
SR388 350 23:00 Mar 25 12:00 Mar 26
SR388 351 23:00 Mar 25 12:00 Mar 26
SR388 352 23:00 Mar 25 12:00 Mar 26
SR388 353 23:00 Mar 25 12:00 Mar 26
SR388 354 23:00 Mar 25 12:00 Mar 26
SR388 355 23:00 Mar 25 12:00 Mar 26
SR388 356 23:00 Mar 25 12:00 Mar 26
SR388 357 23:00 Mar 25 12:00 Mar 26
SR388 358 23:00 Mar 25 12:00 Mar 26
SR388 359 23:00 Mar 25 12:00 Mar 26
SR388 360 23:00 Mar 25 12:00 Mar 26
SR388 361 23:00 Mar 25 12:00 Mar 26
SR388 362 23:00 Mar 25 12:00 Mar 26
SR388 363 23:00 Mar 25 12:00 Mar 26
SR388 364 23:00 Mar 25 12:00 Mar 26
SR388 365 23:00 Mar 25 12:00 Mar 26
SR388 366 23:00 Mar 25 12:00 Mar 26
SR388 367 23:00 Mar 25 12:00 Mar 26
SR388 368 23:00 Mar 25 12:00 Mar 26
SR388 369 23:00 Mar 25 12:00 Mar 26
SR388 370 23:00 Mar 25 12:00 Mar 26
SR388 371 23:00 Mar 25 12:00 Mar 26
SR388 372 23:00 Mar 25 12:00 Mar 26
SR388 373 23:00 Mar 25 12:00 Mar 26
SR388 374 23:00 Mar 25 12:00 Mar 26
SR388 375 23:00 Mar 25 12:00 Mar 26
SR388 376 23:00 Mar 25 12:00 Mar 26
SR388 377 23:00 Mar 25 12:00 Mar 26
SR388 378 23:00 Mar 25 12:00 Mar 26
SR388 379 23:00 Mar 25 12:00 Mar 26
SR388 380 23:00 Mar 25 12:00 Mar 26
SR388 381 23:00 Mar 25 12:00 Mar 26
SR388 382 23:00 Mar 25 12:00 Mar 26
SR388 383 23:00 Mar 25 12:00 Mar 26
SR388 384 23:00 Mar 25 12:00 Mar 26
SR388 385 23:00 Mar 25 12:00 Mar 26
SR388 386 23:00 Mar 25 12:00 Mar 26
SR388 387 23:00 Mar 25 12:00 Mar 26
SR388 388 23:00 Mar 25 12:00 Mar 26
SR388 389 23:00 Mar 25 12:00 Mar 26
SR388 390 23:00 Mar 25 12:00 Mar 26
SR388 391 23:00 Mar 25 12:00 Mar 26
SR388 392 23:00 Mar 25 12:00 Mar 26
SR388 393 23:00 Mar 25 12:00 Mar 26
SR388 394 23:00 Mar 25 12:00 Mar 26
SR388 395 23:00 Mar 25 12:00 Mar 26
SR388 396 23:00 Mar 25 12:00 Mar 26
SR388 397 23:00 Mar 25 12:00 Mar 26
SR388 398 23:00 Mar 25 12:00 Mar 26
SR388 399 23:00 Mar 25 12:00 Mar 26
SR388 400 23:00 Mar 25 12:00 Mar 26
SR388 401 23:00 Mar 25 12:00 Mar 26
SR388 402 23:00 Mar 25 12:00 Mar 26
SR388 403 23:00 Mar 25 12:00 Mar 26
SR388 404 23:00 Mar 25 12:00 Mar 26
SR388 405 23:00 Mar 25 12:00 Mar 26
SR388 406 23:00 Mar 25 12:00 Mar 26
SR388 407 23:00 Mar 25 12:00 Mar 26
SR388 408 23:00 Mar 25 12:00 Mar 26
SR388 409 23:00 Mar 25 12:00 Mar 26
SR388 410 23:00 Mar 25 12:00 Mar 26
SR388 411 23:00 Mar 25 12:00 Mar 26
SR388 412 23:00 Mar 25 12:00 Mar 26
SR388 413 23:00 Mar 25 12:00 Mar 26
SR388 414 23:00 Mar 25 12:00 Mar 26
SR388 415 23:00 Mar 25 12:00 Mar 26
SR388 416 23:00 Mar 25 12:00 Mar 26
SR388 417 23:00 Mar 25 12:00 Mar 26
SR388 418 23:00 Mar 25 12:00 Mar 26
SR388 419 23:00 Mar 25 12:00 Mar 26
SR388 420 23:00 Mar 25 12:00 Mar 26
SR388 421 23:00 Mar 25 12:00 Mar 26
SR388 422 23:00 Mar 25 12:00 Mar 26
SR388 423 23:00 Mar 25 12:00 Mar 26
SR388 424 23:00 Mar 25 12:00 Mar 26
SR388 425 23:00 Mar 25 12:00 Mar 26
SR388 426 23:00 Mar 25 12:00 Mar 26
SR388 427 23:00 Mar 25 12:00 Mar 26
SR388 428 23:00 Mar 25 12:00 Mar 26
SR388 429 23:00 Mar 25 12:00 Mar 26
SR388 430 23:00 Mar 25 12:00 Mar 26
SR388 431 23:00 Mar 25 12:00 Mar 26
SR388 432 23:00 Mar 25 12:00 Mar 26
SR388 433 23:00 Mar 25 12:00 Mar 26
SR388 434 23:00 Mar 25 12:00 Mar 26
SR388 435 23:00 Mar 25 12:00 Mar 26
SR388 436 23:00 Mar 25 12:00 Mar 26
SR388 437 23:00 Mar 25 12:00 Mar 26
SR388 438 23:00 Mar 25 12:00 Mar 26
SR388 439 23:00 Mar 25 12:00 Mar 26
SR388 440 23:00 Mar 25 12:00 Mar 26
SR388 441 23:00 Mar 25 12:00 Mar 26
SR388 442 23:00 Mar 25 12:00 Mar 26
SR388 443 23:00 Mar 25 12:00 Mar 26
SR388 444 23:00 Mar 25 12:00 Mar 26
SR388 445 23:00 Mar 25 12:00 Mar 26
SR388 446 23:00 Mar 25 12:00 Mar 26
SR388 447 23:00 Mar 25 12:00 Mar 26
SR388 448 23:00 Mar 25 12:00 Mar 26
SR388 449 23:00 Mar 25 12:00 Mar 26
SR388 450 23:00 Mar 25 12:00 Mar 26
SR388 451 23:00 Mar 25 12:00 Mar 26
SR388 452 23:00 Mar 25 12:00 Mar 26
SR388 453 23:00 Mar 25 12:00 Mar 26
SR388 454 23:00 Mar 25 12:00 Mar 26
SR388 455 23:00 Mar 25 12:00 Mar 26
SR388 456 23:00 Mar 25 12:00 Mar 26
SR388 457 23:00 Mar 25 12:00 Mar 26
SR388 458 23:00 Mar 25 12:00 Mar 26
SR388 459 23:00 Mar 25 12:00 Mar 26
SR388 460 23:00 Mar 25 12:00 Mar 26
SR388 461 23:00 Mar 25 12:00 Mar 26
SR388 462 23:00 Mar 25 12:00 Mar 26
SR388 463 23:00 Mar 25 12:00 Mar 26
SR388 464 23:00 Mar 25 12:00 Mar 26
SR388 465 23:00 Mar 25 12:00 Mar 26
SR388 466 23:00 Mar 25 12:00 Mar 26
SR388 467 23:00 Mar 25 12:00 Mar 26
SR388 468 23:00 Mar 25 12:00 Mar 26
SR388 469 23:00 Mar 25 12:00 Mar 26
SR388 470 23:00 Mar 25 12:00 Mar 26
SR388 471 23:00 Mar 25 12:00 Mar 26
SR388 472 23:00 Mar 25 12:00 Mar 26
SR388 473 23:00 Mar 25 12:00 Mar 26
SR388 474 23:00 Mar 25 12:00 Mar 26
SR388 475 23:00 Mar 25 12:00 Mar 26
SR388 476 23:00 Mar 25 12:00 Mar 26
SR388 477 23:00 Mar 25 12:00 Mar 26
SR388 478 23:00 Mar 25 12:00 Mar 26
SR388 479 23:00 Mar 25 12:00 Mar 26
SR388 480 23:00 Mar 25 12:00 Mar 26
SR388 481 23:00 Mar 25 12:00 Mar 26
SR388 482 23:00 Mar 25 12:00 Mar 26
SR388 483 23:00 Mar 25 12:00 Mar 26
SR388 484 23:00 Mar 25 12:00 Mar 26
SR388 485 23:00 Mar 25 12:00 Mar 26
SR388 486 23:00 Mar 25 12:00 Mar 26
SR388 487 23:00 Mar 25 12:00 Mar 26
SR388 488 23:00 Mar 25 12:00 Mar 26
SR388 489 23:00 Mar 25 12:00 Mar 26
SR388 490 23:00 Mar 25 12:00 Mar 26
SR388 491 23:00 Mar 25 12:00 Mar 26
SR388 492 23:00 Mar 25 12:00 Mar 26
SR388 493 23:00 Mar 25 12:00 Mar 26
SR388 494 23:00 Mar 25 12:00 Mar 26
SR388 495 23:00 Mar 25 12:00 Mar 26
SR388 496 23:00 Mar 25 12:00 Mar 26
SR388 497 23:00 Mar 25 12:00 Mar 26
SR388 498 23:00 Mar 25 12:00 Mar 26
SR388 499 23:00 Mar 25 12:00 Mar 26
SR388 500 23:00 Mar 25 12:00 Mar 26
Zebes 501 23:00 Mar 25 12:00 Mar 26
Zebes 502 23:00 Mar 25 12:00 Mar 26
Zebes 503 23:00 Mar 25 12:00 Mar 26
Zebes 504 23:00 Mar 25 12:00 Mar 26
Zebes 505 23:00 Mar 25 12:00 Mar 26
Zebes 506 23:00 Mar 25 12:00 Mar 26
Zebes 507 23:00 Mar 25 12:00 Mar 26
Zebes 508 23:00 Mar 25 12:00 Mar 26
Zebes 509 23:00 Mar 25 12:00 Mar 26
Zebes 510 23:00 Mar 25 12:00 Mar 26
Zebes 511 23:00 Mar 25 12:00 Mar 26
Zebes 512 23:00 Mar 25 12:00 Mar 26
Zebes 513 23:00 Mar 25 12:00 Mar 26
Zebes 514 23:00 Mar 25 12:00 Mar 26
Zebes 515 23:00 Mar 25 12:00 Mar 26
Zebes 516 23:00 Mar 25 12:00 Mar 26
Zebes 517 23:00 Mar 25 12:00 Mar 26
Zebes 518 23:00 Mar 25 12:00 Mar 26
Zebes 519 23:00 Mar 25 12:00 Mar 26
Zebes 520 23:00 Mar 25 12:00 Mar 26
Zebes 521 23:00 Mar 25 12:00 Mar 26
Zebes 522 23:00 Mar 25 12:00 Mar 26
Zebes 523 23:00 Mar 25 12:00 Mar 26
Zebes 524 23:00 Mar 25 12:00 Mar 26
Zebes 525 23:00 Mar 25 12:00 Mar 26
Zebes 526 23:00 Mar 25 12:00 Mar 26
Zebes 527 23:00 Mar 25 12:00 Mar 26
Zebes 528 23:00 Mar 25 12:00 Mar 26
Zebes 529 23:00 Mar 25 12:00 Mar 26
Zebes 530 23:00 Mar 25 12:00 Mar 26
Zebes 531 23:00 Mar 25 12:00 Mar 26
Zebes 532 23:00 Mar 25 12:00 Mar 26
Zebes 533 23:00 Mar 25 12:00 Mar 26
Zebes 534 23:00 Mar 25 12:00 Mar 26
Zebes 535 23:00 Mar 25 12:00 Mar 26
Zebes 536 23:00 Mar 25 12:00 Mar 26
Zebes 537 23:00 Mar 25 12:00 Mar 26
Zebes 538 23:00 Mar 25 12:00 Mar 26
Zebes 539 23:00 Mar 25 12:00 Mar 26
Zebes 540 23:00 Mar 25 12:00 Mar 26
Zebes 541 23:00 Mar 25 12:00 Mar 26
Zebes 542 23:00 Mar 25 12:00 Mar 26
Zebes 543 23:00 Mar 25 12:00 Mar 26
Zebes 544 23:00 Mar 25 12:00 Mar 26
Zebes 545 23:00 Mar 25 12:00 Mar 26
Zebes 546 23:00 Mar 25 12:00 Mar 26
Zebes 547 23:00 Mar 25 12:00 Mar 26
Zebes 548 23:00 Mar 25 12:00 Mar 26
Zebes 549 23:00 Mar 25 12:00 Mar 26
Zebes 550 23:00 Mar 25 12:00 Mar 26
Zebes 551 23:00 Mar 25 12:00 Mar 26
Zebes 552 23:00 Mar 25 12:00 Mar 26
Zebes 553 23:00 Mar 25 12:00 Mar 26
Zebes 554 23:00 Mar 25 12:00 Mar 26
Zebes 555 23:00 Mar 25 12:00 Mar 26
Zebes 556 23:00 Mar 25 12:00 Mar 26
Zebes 557 23:00 Mar 25 12:00 Mar 26
Zebes 558 23:00 Mar 25 12:00 Mar 26
Zebes 559 23:00 Mar 25 12:00 Mar 26
Zebes 560 23:00 Mar 25 12:00 Mar 26
Zebes 561 23:00 Mar 25 12:00 Mar 26
Zebes 562 23:00 Mar 25 12:00 Mar 26
Zebes 563 23:00 Mar 25 12:00 Mar 26
Zebes 564 23:00 Mar 25 12:00 Mar 26
Zebes 565 23:00 Mar 25 12:00 Mar 26
Zebes 566 23:00 Mar 25 12:00 Mar 26
Zebes 567 23:00 Mar 25 12:00 Mar 26
Zebes 568 23:00 Mar 25 12:00 Mar 26
Zebes 569 23:00 Mar 25 12:00 Mar 26
Zebes 570 23:00 Mar 25 12:00 Mar 26
Zebes 571 23:00 Mar 25 12:00 Mar 26
Zebes 572 23:00 Mar 25 12:00 Mar 26
Zebes 573 23:00 Mar 25 12:00 Mar 26
Zebes 574 23:00 Mar 25 12:00 Mar 26
Zebes 575 23:00 Mar 25 12:00 Mar 26
Zebes 576 23:00 Mar 25 12:00 Mar 26
Zebes 577 23:00 Mar 25 12:00 Mar 26
Zebes 578 23:00 Mar 25 12:00 Mar 26
Zebes 579 23:00 Mar 25 12:00 Mar 26
Zebes 580 23:00 Mar 25 12:00 Mar 26
Zebes 581 23:00 Mar 25 12:00 Mar 26
Zebes 582 23:00 Mar 25 12:00 Mar 26
Zebes 583 23:00 Mar 25 12:00 Mar 26
Zebes 584 23:00 Mar 25 12:00 Mar 26
Zebes 585 23:00 Mar 25 12:00 Mar 26
Zebes 586 23:00 Mar 25 12:00 Mar 26
Zebes 587 23:00 Mar 25 12:00 Mar 26
Zebes 588 23:00 Mar 25 12:00 Mar 26
Zebes 589 23:00 Mar 25 12:00 Mar 26
Zebes 590 23:00 Mar 25 12:00 Mar 26
Zebes 591 23:00 Mar 25 12:00 Mar 26
Zebes 592 23:00 Mar 25 12:00 Mar 26
Zebes 593 23:00 Mar 25 12:00 Mar 26
Zebes 594 23:00 Mar 25 12:00 Mar 26
Zebes 595 23:00 Mar 25 12:00 Mar 26
Zebes 596 23:00 Mar 25 12:00 Mar 26
Zebes 597 23:00 Mar 25 12:00 Mar 26
Zebes 598 23:00 Mar 25 12:00 Mar 26
Zebes 599 23:00 Mar 25 12:00 Mar 26
Zebes 600 23:00 Mar 25 12:00 Mar 26
Zebes 601 23:00 Mar 25 12:00 Mar 26
Zebes 602 23:00 Mar 25 12:00 Mar 26
Zebes 603 23:00 Mar 25 12:00 Mar 26
Zebes 604 23:00 Mar 25 12:00 Mar 26
Zebes 605 23:00 Mar 25 12:00 Mar 26
Zebes 606 23:00 Mar 25 12:00 Mar 26
Zebes 607 23:00 Mar 25 12:00 Mar 26
Zebes 608 23:00 Mar 25 12:00 Mar 26
Zebes 609 23:00 Mar 25 12:00 Mar 26
Zebes 610 23:00 Mar 25 12:00 Mar 26
Zebes 611 23:00 Mar 25 12:00 Mar 26
Zebes 612 23:00 Mar 25 12:00 Mar 26
Zebes 613 23:00 Mar 25 12:00 Mar 26
Zebes 614 23:00 Mar 25 12:00 Mar 26
Zebes 615 23:00 Mar 25 12:00 Mar 26
Zebes 616 23:00 Mar 25 12:00 Mar 26
Zebes 617 23:00 Mar 25 12:00 Mar 26
Zebes 618 23:00 Mar 25 12:00 Mar 26
Zebes 619 23:00 Mar 25 12:00 Mar 26
Zebes 620 23:00 Mar 25 12:00 Mar 26
Zebes 621 23:00 Mar 25 12:00 Mar 26
Zebes 622 23:00 Mar 25 12:00 Mar 26
Zebes 623 23:00 Mar 25 12:00 Mar 26
Zebes 624 23:00 Mar 25 12:00 Mar 26
Zebes 625 23:00 Mar 25 12:00 Mar 26
Zebes 626 23:00 Mar 25 12:00 Mar 26
Zebes 627 23:00 Mar 25 12:00 Mar 26
Zebes 628 23:00 Mar 25 12:00 Mar 26
Zebes 629 23:00 Mar 25 12:00 Mar 26
Zebes 630 23:00 Mar 25 12:00 Mar 26
Zebes 631 23:00 Mar 25 12:00 Mar 26
Zebes 632 23:00 Mar 25 12:00 Mar 26
Zebes 633 23:00 Mar 25 12:00 Mar 26
Zebes 634 23:00 Mar 25 12:00 Mar 26
Zebes 635 23:00 Mar 25 12:00 Mar 26
Zebes 636 23:00 Mar 25 12:00 Mar 26
Zebes 637 23:00 Mar 25 12:00 Mar 26
Zebes 638 23:00 Mar 25 12:00 Mar 26
Zebes 639 23:00 Mar 25 12:00 Mar 26
Zebes 640 23:00 Mar 25 12:00 Mar 26
Zebes 641 23:00 Mar 25 12:00 Mar 26
Zebes 642 23:00 Mar 25 12:00 Mar 26
Zebes 643 23:00 Mar 25 12:00 Mar 26
Zebes 644 23:00 Mar 25 12:00 Mar 26
Zebes 645 23:00 Mar 25 12:00 Mar 26
Zebes 646 23:00 Mar 25 12:00 Mar 26
Zebes 647 23:00 Mar 25 12:00 Mar 26
Zebes 648 23:00 Mar 25 12:00 Mar 26
Zebes 649 23:00 Mar 25 12:00 Mar 26
Zebes 650 23:00 Mar 25 12:00 Mar 26
Zebes 651 23:00 Mar 25 12:00 Mar 26
Zebes 652 23:00 Mar 25 12:00 Mar 26
Zebes 653 23:00 Mar 25 12:00 Mar 26
Zebes 654 23:00 Mar 25 12:00 Mar 26
Zebes 655 23:00 Mar 25 12:00 Mar 26
Zebes 656 23:00 Mar 25 12:00 Mar 26
Zebes 657 23:00 Mar 25 12:00 Mar 26
Zebes 658 23:00 Mar 25 12:00 Mar 26
Zebes 659 23:00 Mar 25 12:00 Mar 26
Zebes 660 23:00 Mar 25 12:00 Mar 26
Zebes 661 23:00 Mar 25 12:00 Mar 26
Zebes 662 23:00 Mar 25 12:00 Mar 26
Zebes 663 23:00 Mar 25 12:00 Mar 26
Zebes 664 23:00 Mar 25 12:00 Mar 26
Zebes 665 23:00 Mar 25 12:00 Mar 26
Zebes 666 23:00 Mar 25 12:00 Mar 26
Zebes 667 23:00 Mar 25 12:00 Mar 26
Zebes 668 23:00 Mar 25 12:00 Mar 26
Zebes 669 23:00 Mar 25 12:00 Mar 26
Zebes 670 23:00 Mar 25 12:00 Mar 26
Zebes 671 23:00 Mar 25 12:00 Mar 26
Zebes 672 23:00 Mar 25 12:00 Mar 26
Zebes 673 23:00 Mar 25 12:00 Mar 26
Zebes 674 23:00 Mar 25 12:00 Mar 26
Zebes 675 23:00 Mar 25 12:00 Mar 26
Zebes 676 23:00 Mar 25 12:00 Mar 26
Zebes 677 23:00 Mar 25 12:00 Mar 26
Zebes 678 23:00 Mar 25 12:00 Mar 26
Zebes 679 23:00 Mar 25 12:00 Mar 26
Zebes 680 23:00 Mar 25 12:00 Mar 26
Zebes 681 23:00 Mar 25 12:00 Mar 26
Zebes 682 23:00 Mar 25 12:00 Mar 26
Zebes 683 23:00 Mar 25 12:00 Mar 26
Zebes 684 23:00 Mar 25 12:00 Mar 26
Zebes 685 23:00 Mar 25 12:00 Mar 26
Zebes 686 23:00 Mar 25 12:00 Mar 26
Zebes 687 23:00 Mar 25 12:00 Mar 26
Zebes 688 23:00 Mar 25 12:00 Mar 26
Zebes 689 23:00 Mar 25 12:00 Mar 26
Zebes 690 23:00 Mar 25 12:00 Mar 26
Zebes 691 23:00 Mar 25 12:00 Mar 26
Zebes 692 23:00 Mar 25 12:00 Mar 26
Zebes 693 23:00 Mar 25 12:00 Mar 26
Zebes 694 23:00 Mar 25 12:00 Mar 26
Zebes 695 23:00 Mar 25 12:00 Mar 26
Zebes 696 23:00 Mar 25 12:00 Mar 26
Zebes 697 23:00 Mar 25 12:00 Mar 26
Zebes 698 23:00 Mar 25 12:00 Mar 26
Zebes 699 23:00 Mar 25 12:00 Mar 26
Zebes 700 23:00 Mar 25 12:00 Mar 26
Zebes 701 23:00 Mar 25 12:00 Mar 26
Zebes 702 23:00 Mar 25 12:00 Mar 26
Zebes 703 23:00 Mar 25 12:00 Mar 26
Zebes 704 23:00 Mar 25 12:00 Mar 26
Zebes 705 23:00 Mar 25 12:00 Mar 26
Zebes 706 23:00 Mar 25 12:00 Mar 26
Zebes 707 23:00 Mar 25 12:00 Mar 26
Zebes 708 23:00 Mar 25 12:00 Mar 26
Zebes 709 23:00 Mar 25 12:00 Mar 26
Zebes 710 23:00 Mar 25 12:00 Mar 26
Zebes 711 23:00 Mar 25 12:00 Mar 26
Zebes 712 23:00 Mar 25 12:00 Mar 26
Zebes 713 23:00 Mar 25 12:00 Mar 26
Zebes 714 23:00 Mar 25 12:00 Mar 26
Zebes 715 23:00 Mar 25 12:00 Mar 26
Zebes 716 23:00 Mar 25 12:00 Mar 26
Zebes 717 23:00 Mar 25 12:00 Mar 26
Zebes 718 23:00 Mar 25 12:00 Mar 26
Zebes 719 23:00 Mar 25 12:00 Mar 26
Zebes 720 23:00 Mar 25 12:00 Mar 26
Zebes 721 23:00 Mar 25 12:00 Mar 26
Zebes 722 23:00 Mar 25 12:00 Mar 26
Zebes 723 23:00 Mar 25 12:00 Mar 26
Zebes 724 23:00 Mar 25 12:00 Mar 26
Zebes 725 23:00 Mar 25 12:00 Mar 26
Zebes 726 23:00 Mar 25 12:00 Mar 26
Zebes 727 23:00 Mar 25 12:00 Mar 26
Zebes 728 23:00 Mar 25 12:00 Mar 26
Zebes 729 23:00 Mar 25 12:00 Mar 26
Zebes 730 23:00 Mar 25 12:00 Mar 26
Zebes 731 23:00 Mar 25 12:00 Mar 26
Zebes 732 23:00 Mar 25 12:00 Mar 26
Zebes 733 23:00 Mar 25 12:00 Mar 26
Zebes 734 23:00 Mar 25 12:00 Mar 26
Zebes 735 23:00 Mar 25 12:00 Mar 26
Zebes 736 23:00 Mar 25 12:00 Mar 26
Zebes 737 23:00 Mar 25 12:00 Mar 26
Zebes 738 23:00 Mar 25 12:00 Mar 26
Zebes 739 23:00 Mar 25 12:00 Mar 26
Zebes 740 23:00 Mar 25 12:00 Mar 26
Zebes 741 23:00 Mar 25 12:00 Mar 26
Zebes 742 23:00 Mar 25 12:00 Mar 26
Zebes 743 23:00 Mar 25 12:00 Mar 26
Zebes 744 23:00 Mar 25 12:00 Mar 26
Zebes 745 23:00 Mar 25 12:00 Mar 26
Zebes 746 23:00 Mar 25 12:00 Mar 26
Zebes 747 23:00 Mar 25 12:00 Mar 26
Zebes 748 23:00 Mar 25 12:00 Mar 26
Zebes 749 23:00 Mar 25 12:00 Mar 26
Zebes 750 23:00 Mar 25 12:00 Mar 26
Zebes 751 23:00 Mar 25 12:00 Mar 26
Zebes 752 23:00 Mar 25 12:00 Mar 26
Zebes 753 23:00 Mar 25 12:00 Mar 26
Zebes 754 23:00 Mar 25 12:00 Mar 26
Zebes 755 23:00 Mar 25 12:00 Mar 26
Zebes 756 23:00 Mar 25 12:00 Mar 26
Zebes 757 23:00 Mar 25 12:00 Mar 26
Zebes 758 23:00 Mar 25 12:00 Mar 26
Zebes 759 23:00 Mar 25 12:00 Mar 26
Zebes 760 23:00 Mar 25 12:00 Mar 26
Zebes 761 23:00 Mar 25 12:00 Mar 26
Zebes 762 23:00 Mar 25 12:00 Mar 26
Zebes 763 23:00 Mar 25 12:00 Mar 26
Zebes 764 23:00 Mar 25 12:00 Mar 26
Zebes 765 23:00 Mar 25 12:00 Mar 26
Zebes 766 23:00 Mar 25 12:00 Mar 26
Zebes 767 23:00 Mar 25 12:00 Mar 26
Zebes 768 23:00 Mar 25 12:00 Mar 26
Zebes 769 23:00 Mar 25 12:00 Mar 26
Zebes 770 23:00 Mar 25 12:00 Mar 26
Zebes 771 23:00 Mar 25 12:00 Mar 26
Zebes 772 23:00 Mar 25 12:00 Mar 26
Zebes 773 23:00 Mar 25 12:00 Mar 26
Zebes 774 23:00 Mar 25 12:00 Mar 26
Zebes 775 23:00 Mar 25 12:00 Mar 26
Zebes 776 23:00 Mar 25 12:00 Mar 26
Zebes 777 23:00 Mar 25 12:00 Mar 26
Zebes 778 23:00 Mar 25 12:00 Mar 26
Zebes 779 23:00 Mar 25 12:00 Mar 26
Zebes 780 23:00 Mar 25 12:00 Mar 26
Zebes 781 23:00 Mar 25 12:00 Mar 26
Zebes 782 23:00 Mar 25 12:00 Mar 26
Zebes 783 23:00 Mar 25 12:00 Mar 26
Zebes 784 23:00 Mar 25 12:00 Mar 26
Zebes 785 23:00 Mar 25 12:00 Mar 26
Zebes 786 23:00 Mar 25 12:00 Mar 26
Zebes 787 23:00 Mar 25 12:00 Mar 26
Zebes 788 23:00 Mar 25 12:00 Mar 26
Zebes 789 23:00 Mar 25 12:00 Mar 26
Zebes 790 23:00 Mar 25 12:00 Mar 26
Zebes 791 23:00 Mar 25 12:00 Mar 26
Zebes 792 23:00 Mar 25 12:00 Mar 26
Zebes 793 23:00 Mar 25 12:00 Mar 26
Zebes 794 23:00 Mar 25 12:00 Mar 26
Zebes 795 23:00 Mar 25 12:00 Mar 26
Zebes 796 23:00 Mar 25 12:00 Mar 26
Zebes 797 23:00 Mar 25 12:00 Mar 26
Zebes 798 23:00 Mar 25 12:00 Mar 26
Zebes 799 23:00 Mar 25 12:00 Mar 26
Zebes 800 23:00 Mar 25 12:00 Mar 26
Zebes 801 23:00 Mar 25 12:00 Mar 26
Zebes 802 23:00 Mar 25 12:00 Mar 26
Zebes 803 23:00 Mar 25 12:00 Mar 26
Zebes 804 23:00 Mar 25 12:00 Mar 26
Zebes 805 23:00 Mar 25 12:00 Mar 26
Zebes 806 23:00 Mar 25 12:00 Mar 26
Zebes 807 23:00 Mar 25 12:00 Mar 26
Zebes 808 23:00 Mar 25 12:00 Mar 26
Zebes 809 23:00 Mar 25 12:00 Mar 26
Zebes 810 23:00 Mar 25 12:00 Mar 26
Zebes 811 23:00 Mar 25 12:00 Mar 26
Zebes 812 23:00 Mar 25 12:00 Mar 26
Zebes 813 23:00 Mar 25 12:00 Mar 26
Zebes 814 23:00 Mar 25 12:00 Mar 26
Zebes 815 23:00 Mar 25 12:00 Mar 26
Zebes 816 23:00 Mar 25 12:00 Mar 26
Zebes 817 23:00 Mar 25 12:00 Mar 26
Zebes 818 23:00 Mar 25 12:00 Mar 26
Zebes 819 23:00 Mar 25 12:00 Mar 26
Zebes 820 23:00 Mar 25 12:00 Mar 26
Zebes 821 23:00 Mar 25 12:00 Mar 26
Zebes 822 23:00 Mar 25 12:00 Mar 26
Zebes 823 23:00 Mar 25 12:00 Mar 26
Zebes 824 23:00 Mar 25 12:00 Mar 26
Zebes 825 23:00 Mar 25 12:00 Mar 26
Zebes 826 23:00 Mar 25 12:00 Mar 26
Zebes 827 23:00 Mar 25 12:00 Mar 26
Zebes 828 23:00 Mar 25 12:00 Mar 26
Zebes 829 23:00 Mar 25 12:00 Mar 26
Zebes 830 23:00 Mar 25 12:00 Mar 26
Zebes 831 23:00 Mar 25 12:00 Mar 26
Zebes 832 23:00 Mar 25 12:00 Mar 26
Zebes 833 23:00 Mar 25 12:00 Mar 26
Zebes 834 23:00 Mar 25 12:00 Mar 26
Zebes 835 23:00 Mar 25 12:00 Mar 26
Zebes 836 23:00 Mar 25 12:00 Mar 26
Zebes 837 23:00 Mar 25 12:00 Mar 26
Zebes 838 23:00 Mar 25 12:00 Mar 26
Zebes 839 23:00 Mar 25 12:00 Mar 26
Zebes 840 23:00 Mar 25 12:00 Mar 26
Zebes 841 23:00 Mar 25 12:00 Mar 26
Zebes 842 23:00 Mar 25 12:00 Mar 26
Zebes 843 23:00 Mar 25 12:00 Mar 26
Zebes 844 23:00 Mar 25 12:00 Mar 26
Zebes 845 23:00 Mar 25 12:00 Mar 26
Zebes 846 23:00 Mar 25 12:00 Mar 26
Zebes 847 23:00 Mar 25 12:00 Mar 26
Zebes 848 23:00 Mar 25 12:00 Mar 26
Zebes 849 23:00 Mar 25 12:00 Mar 26
Zebes 850 23:00 Mar 25 12:00 Mar 26
Zebes 851 23:00 Mar 25 12:00 Mar 26
Zebes 852 23:00 Mar 25 12:00 Mar 26
Zebes 853 23:00 Mar 25 12:00 Mar 26
Zebes 854 23:00 Mar 25 12:00 Mar 26
Zebes 855 23:00 Mar 25 12:00 Mar 26
Zebes 856 23:00 Mar 25 12:00 Mar 26
Zebes 857 23:00 Mar 25 12:00 Mar 26
Zebes 858 23:00 Mar 25 12:00 Mar 26
Zebes 859 23:00 Mar 25 12:00 Mar 26
Zebes 860 23:00 Mar 25 12:00 Mar 26
Zebes 861 23:00 Mar 25 12:00 Mar 26
Zebes 862 23:00 Mar 25 12:00 Mar 26
Zebes 863 23:00 Mar 25 12:00 Mar 26
Zebes 864 23:00 Mar 25 12:00 Mar 26
Zebes 865 23:00 Mar 25 12:00 Mar 26
Zebes 866 23:00 Mar 25 12:00 Mar 26
Zebes 867 23:00 Mar 25 12:00 Mar 26
Zebes 868 23:00 Mar 25 12:00 Mar 26
Zebes 869 23:00 Mar 25 12:00 Mar 26
Zebes 870 23:00 Mar 25 12:00 Mar 26
Zebes 871 23:00 Mar 25 12:00 Mar 26
Zebes 872 23:00 Mar 25 12:00 Mar 26
Zebes 873 23:00 Mar 25 12:00 Mar 26
Zebes 874 23:00 Mar 25 12:00 Mar 26
Zebes 875 23:00 Mar 25 12:00 Mar 26
Zebes 876 23:00 Mar 25 12:00 Mar 26
Zebes 877 23:00 Mar 25 12:00 Mar 26
Zebes 878 23:00 Mar 25 12:00 Mar 26
Zebes 879 23:00 Mar 25 12:00 Mar 26
Zebes 880 23:00 Mar 25 12:00 Mar 26
Zebes 881 23:00 Mar 25 12:00 Mar 26
Zebes 882 23:00 Mar 25 12:00 Mar 26
Zebes 883 23:00 Mar 25 12:00 Mar 26
Zebes 884 23:00 Mar 25 12:00 Mar 26
Zebes 885 23:00 Mar 25 12:00 Mar 26
Zebes 886 23:00 Mar 25 12:00 Mar 26
Zebes 887 23:00 Mar 25 12:00 Mar 26
Zebes 888 23:00 Mar 25 12:00 Mar 26
Zebes 889 23:00 Mar 25 12:00 Mar 26
Zebes 890 23:00 Mar 25 12:00 Mar 26
Zebes 891 23:00 Mar 25 12:00 Mar 26
Zebes 892 23:00 Mar 25 12:00 Mar 26
Zebes 893 23:00 Mar 25 12:00 Mar 26
Zebes 894 23:00 Mar 25 12:00 Mar 26
Zebes 895 23:00 Mar 25 12:00 Mar 26
Zebes 896 23:00 Mar 25 12:00 Mar 26
Zebes 897 23:00 Mar 25 12:00 Mar 26
Zebes 898 23:00 Mar 25 12:00 Mar 26
Zebes 899 23:00 Mar 25 12:00 Mar 26
Zebes 900 23:00 Mar 25 12:00 Mar 26
Zebes 901 23:00 Mar 25 12:00 Mar 26
Zebes 902 23:00 Mar 25 12:00 Mar 26
Zebes 903 23:00 Mar 25 12:00 Mar 26
Zebes 904 23:00 Mar 25 12:00 Mar 26
Zebes 905 23:00 Mar 25 12:00 Mar 26
Zebes 906 23:00 Mar 25 12:00 Mar 26
Zebes 907 23:00 Mar 25 12:00 Mar 26
Zebes 908 23:00 Mar 25 12:00 Mar 26
Zebes 909 23:00 Mar 25 12:00 Mar 26
Zebes 910 23:00 Mar 25 12:00 Mar 26
Zebes 911 23:00 Mar 25 12:00 Mar 26
Zebes 912 23:00 Mar 25 12:00 Mar 26
Zebes 913 23:00 Mar 25 12:00 Mar 26
Zebes 914 23:00 Mar 25 12:00 Mar 26
Zebes 915 23:00 Mar 25 12:00 Mar 26
Zebes 916 23:00 Mar 25 12:00 Mar 26
Zebes 917 23:00 Mar 25 12:00 Mar 26
Zebes 918 23:00 Mar 25 12:00 Mar 26
Zebes 919 23:00 Mar 25 12:00 Mar 26
Zebes 920 23:00 Mar 25 12:00 Mar 26
Zebes 921 23:00 Mar 25 12:00 Mar 26
Zebes 922 23:00 Mar 25 12:00 Mar 26
Zebes 923 23:00 Mar 25 12:00 Mar 26
Zebes 924 23:00 Mar 25 12:00 Mar 26
Zebes 925 23:00 Mar 25 12:00 Mar 26
Zebes 926 23:00 Mar 25 12:00 Mar 26
Zebes 927 23:00 Mar 25 12:00 Mar 26
Zebes 928 23:00 Mar 25 12:00 Mar 26
Zebes 929 23:00 Mar 25 12:00 Mar 26
Zebes 930 23:00 Mar 25 12:00 Mar 26
Zebes 931 23:00 Mar 25 12:00 Mar 26
Zebes 932 23:00 Mar 25 12:00 Mar 26
Zebes 933 23:00 Mar 25 12:00 Mar 26
Zebes 934 23:00 Mar 25 12:00 Mar 26
Zebes 935 23:00 Mar 25 12:00 Mar 26
Zebes 936 23:00 Mar 25 12:00 Mar 26
Zebes 937 23:00 Mar 25 12:00 Mar 26
Zebes 938 23:00 Mar 25 12:00 Mar 26
Zebes 939 23:00 Mar 25 12:00 Mar 26
Zebes 940 23:00 Mar 25 12:00 Mar 26
Zebes 941 23:00 Mar 25 12:00 Mar 26
Zebes 942 23:00 Mar 25 12:00 Mar 26
Zebes 943 23:00 Mar 25 12:00 Mar 26
Zebes 944 23:00 Mar 25 12:00 Mar 26
Zebes 945 23:00 Mar 25 12:00 Mar 26
Zebes 946 23:00 Mar 25 12:00 Mar 26
Zebes 947 23:00 Mar 25 12:00 Mar 26
Zebes 948 23:00 Mar 25 12:00 Mar 26
Zebes 949 23:00 Mar 25 12:00 Mar 26
Zebes 950 23:00 Mar 25 12:00 Mar 26
Zebes 951 23:00 Mar 25 12:00 Mar 26
Zebes 952 23:00 Mar 25 12:00 Mar 26
Zebes 953 23:00 Mar 25 12:00 Mar 26
Zebes 954 23:00 Mar 25 12:00 Mar 26
Zebes 955 23:00 Mar 25 12:00 Mar 26
Zebes 956 23:00 Mar 25 12:00 Mar 26
Zebes 957 23:00 Mar 25 12:00 Mar 26
Zebes 958 23:00 Mar 25 12:00 Mar 26
Zebes 959 23:00 Mar 25 12:00 Mar 26
Zebes 960 23:00 Mar 25 12:00 Mar 26
Zebes 961 23:00 Mar 25 12:00 Mar 26
Zebes 962 23:00 Mar 25 12:00 Mar 26
Zebes 963 23:00 Mar 25 12:00 Mar 26
Zebes 964 23:00 Mar 25 12:00 Mar 26
Zebes 965 23:00 Mar 25 12:00 Mar 26
Zebes 966 23:00 Mar 25 12:00 Mar 26
Zebes 967 23:00 Mar 25 12:00 Mar 26
Zebes 968 23:00 Mar 25 12:00 Mar 26
Zebes 969 23:00 Mar 25 12:00 Mar 26
Zebes 970 23:00 Mar 25 12:00 Mar 26
Zebes 971 23:00 Mar 25 12:00 Mar 26
Zebes 972 23:00 Mar 25 12:00 Mar 26
Zebes 973 23:00 Mar 25 12:00 Mar 26
Zebes 974 23:00 Mar 25 12:00 Mar 26
Zebes 975 23:00 Mar 25 12:00 Mar 26
Zebes 976 23:00 Mar 25 12:00 Mar 26
Zebes 977 23:00 Mar 25 12:00 Mar 26
Zebes 978 23:00 Mar 25 12:00 Mar 26
Zebes 979 23:00 Mar 25 12:00 Mar 26
Zebes 980 23:00 Mar 25 12:00 Mar 26
Zebes 981 23:00 Mar 25 12:00 Mar 26
Zebes 982 23:00 Mar 25 12:00 Mar 26
Zebes 983 23:00 Mar 25 12:00 Mar 26
Zebes 984 23:00 Mar 25 12:00 Mar 26
Zebes 985 23:00 Mar 25 12:00 Mar 26
Zebes 986 23:00 Mar 25 12:00 Mar 26
Zebes 987 23:00 Mar 25 12:00 Mar 26
Zebes 988 23:00 Mar 25 12:00 Mar 26
Zebes 989 23:00 Mar 25 12:00 Mar 26
Zebes 990 23:00 Mar 25 12:00 Mar 26
Zebes 991 23:00 Mar 25 12:00 Mar 26
Zebes 992 23:00 Mar 25 12:00 Mar 26
Zebes 993 23:00 Mar 25 12:00 Mar 26
Zebes 994 23:00 Mar 25 12:00 Mar 26
Zebes 995 23:00 Mar 25 12:00 Mar 26
Zebes 996 23:00 Mar 25 12:00 Mar 26
Zebes 997 23:00 Mar 25 12:00 Mar 26
Zebes 998 23:00 Mar 25 12:00 Mar 26
Zebes 999 23:00 Mar 25 12:00 Mar 26
Zebes 1000 23:00 Mar 25 12:00 Mar 26
Cancel 501
Cancel 502
Cancel 503
Cancel 504
Cancel 505
Cancel 506
Cancel 507
Cancel 508
Cancel 509
Cancel 510
Cancel 511
Cancel 512
Cancel 513
Cancel 514
Cancel 515
Cancel 516
Cancel 517
Cancel 518
Cancel 519
Cancel 520
Cancel 521
Cancel 522
Cancel 523
Cancel 524
Cancel 525
Cancel 526
Cancel 527
Cancel 528
Cancel 529
Cancel 530
Cancel 531
Cancel 532
Cancel 533
Cancel 534
Cancel 535
Cancel 536
Cancel 537
Cancel 538
Cancel 539
Cancel 540
Cancel 541
Cancel 542
Cancel 543
Cancel 544
Cancel 545
Cancel 546
Cancel 547
Cancel 548
Cancel 549
Cancel 550
Cancel 551
Cancel 552
Cancel 553
Cancel 554
Cancel 555
Cancel 556
Cancel 557
Cancel 558
Cancel 559
Cancel 560
Cancel 561
Cancel 562
Cancel 563
Cancel 564
Cancel 565
Cancel 566
Cancel 567
Cancel 568
Cancel 569
Cancel 570
Cancel 571
Cancel 572
Cancel 573
Cancel 574
Cancel 575
Cancel 576
Cancel 577
Cancel 578
Cancel 579
Cancel 580
Cancel 581
Cancel 582
Cancel 583
Cancel 584
Cancel 585
Cancel 586
Cancel 587
Cancel 588
Cancel 589
Cancel 590
Cancel 591
Cancel 592
Cancel 593
Cancel 594
Cancel 595
Cancel 596
Cancel 597
Cancel 598
Cancel 599
Cancel 600
Cancel 601
Cancel 602
Cancel 603
Cancel 604
Cancel 605
Cancel 606
Cancel 607
Cancel 608
Cancel 609
Cancel 610
Cancel 611
Cancel 612
Cancel 613
Cancel 614
Cancel 615
Cancel 616
Cancel 617
Cancel 618
Cancel 619
Cancel 620
Cancel 621
Cancel 622
Cancel 623
Cancel 624
Cancel 625
Cancel 626
Cancel 627
Cancel 628
Cancel 629
Cancel 630
Cancel 631
Cancel 632
Cancel 633
Cancel 634
Cancel 635
Cancel 636
Cancel 637
Cancel 638
Cancel 639
Cancel 640
Cancel 641
Cancel 642
Cancel 643
Cancel 644
Cancel 645
Cancel 646
Cancel 647
Cancel 648
Cancel 649
Cancel 650
Cancel 651
Cancel 652
Cancel 653
Cancel 654
Cancel 655
Cancel 656
Cancel 657
Cancel 658
Cancel 659
Cancel 660
Cancel 661
Cancel 662
Cancel 663
Cancel 664
Cancel 665
Cancel 666
Cancel 667
Cancel 668
Cancel 669
Cancel 670
Cancel 671
Cancel 672
Cancel 673
Cancel 674
Cancel 675
Cancel 676
Cancel 677
Cancel 678
Cancel 679
Cancel 680
Cancel 681
Cancel 682
Cancel 683
Cancel 684
Cancel 685
Cancel 686
Cancel 687
Cancel 688
Cancel 689
Cancel 690
Cancel 691
Cancel 692
Cancel 693
Cancel 694
Cancel 695
Cancel 696
Cancel 697
Cancel 698
Cancel 699
Cancel 700
Cancel 701
Cancel 702
Cancel 703
Cancel 704
Cancel 705
Cancel 706
Cancel 707
Cancel 708
Cancel 709
Cancel 710
Cancel 711
Cancel 712
Cancel 713
Cancel 714
Cancel 715
Cancel 716
Cancel 717
Cancel 718
Cancel 719
Cancel 720
Cancel 721
Cancel 722
Cancel 723
Cancel 724
Cancel 725
Cancel 726
Cancel 727
Cancel 728
Cancel 729
Cancel 730
Cancel 731
Cancel 732
Cancel 733
Cancel 734
Cancel 735
Cancel 736
Cancel 737
Cancel 738
Cancel 739
Cancel 740
Cancel 741
Cancel 742
Cancel 743
Cancel 744
Cancel 745
Cancel 746
Cancel 747
Cancel 748
Cancel 749
Cancel 750
Cancel 751
Cancel 752
Cancel 753
Cancel 754
Cancel 755
Cancel 756
Cancel 757
Cancel 758
Cancel 759
Cancel 760
Cancel 761
Cancel 762
Cancel 763
Cancel 764
Cancel 765
Cancel 766
Cancel 767
Cancel 768
Cancel 769
Cancel 770
Cancel 771
Cancel 772
Cancel 773
Cancel 774
Cancel 775
Cancel 776
Cancel 777
Cancel 778
Cancel 779
Cancel 780
Cancel 781
Cancel 782
Cancel 783
Cancel 784
Cancel 785
Cancel 786
Cancel 787
Cancel 788
Cancel 789
Cancel 790
Cancel 791
Cancel 792
Cancel 793
Cancel 794
Cancel 795
Cancel 796
Cancel 797
Cancel 798
Cancel 799
Cancel 800
Cancel 801
Cancel 802
Cancel 803
Cancel 804
Cancel 805
Cancel 806
Cancel 807
Cancel 808
Cancel 809
Cancel 810
Cancel 811
Cancel 812
Cancel 813
Cancel 814
Cancel 815
Cancel 816
Cancel 817
Cancel 818
Cancel 819
Cancel 820
Cancel 821
Cancel 822
Cancel 823
Cancel 824
Cancel 825
Cancel 826
Cancel 827
Cancel 828
Cancel 829
Cancel 830
Cancel 831
Cancel 832
Cancel 833
Cancel 834
Cancel 835
Cancel 836
Cancel 837
Cancel 838
Cancel 839
Cancel 840
Cancel 841
Cancel 842
Cancel 843
Cancel 844
Cancel 845
Cancel 846
Cancel 847
Cancel 848
Cancel 849
Cancel 850
Cancel 851
Cancel 852
Cancel 853
Cancel 854
Cancel 855
Cancel 856
Cancel 857
Cancel 858
Cancel 859
Cancel 860
Cancel 861
Cancel 862
Cancel 863
Cancel 864
Cancel 865
Cancel 866
Cancel 867
Cancel 868
Cancel 869
Cancel 870
Cancel 871
Cancel 872
Cancel 873
Cancel 874
Cancel 875
Cancel 876
Cancel 877
Cancel 878
Cancel 879
Cancel 880
Cancel 881
Cancel 882
Cancel 883
Cancel 884
Cancel 885
Cancel 886
Cancel 887
Cancel 888
Cancel 889
Cancel 890
Cancel 891
Cancel 892
Cancel 893
Cancel 894
Cancel 895
Cancel 896
Cancel 897
Cancel 898
Cancel 899
Cancel 900
Cancel 901
Cancel 902
Cancel 903
Cancel 904
Cancel 905
Cancel 906
Cancel 907
Cancel 908
Cancel 909
Cancel 910
Cancel 911
Cancel 912
Cancel 913
Cancel 914
Cancel 915
Cancel 916
Cancel 917
Cancel 918
Cancel 919
Cancel 920
Cancel 921
Cancel 922
Cancel 923
Cancel 924
Cancel 925
Cancel 926
Cancel 927
Cancel 928
Cancel 929
Cancel 930
Cancel 931
Cancel 932
Cancel 933
Cancel 934
Cancel 935
Cancel 936
Cancel 937
Cancel 938
Cancel 939
Cancel 940
Cancel 941
Cancel 942
Cancel 943
Cancel 944
Cancel 945
Cancel 946
Cancel 947
Cancel 948
Cancel 949
Cancel 950
Cancel 951
Cancel 952
Cancel 953
Cancel 954
Cancel 955
Cancel 956
Cancel 957
Cancel 958
Cancel 959
Cancel 960
Cancel 961
Cancel 962
Cancel 963
Cancel 964
Cancel 965
Cancel 966
Cancel 967
Cancel 968
Cancel 969
Cancel 970
Cancel 971
Cancel 972
Cancel 973
Cancel 974
Cancel 975
Cancel 976
Cancel 977
Cancel 978
Cancel 979
Cancel 980
Cancel 981
Cancel 982
Cancel 983
Cancel 984
Cancel 985
Cancel 986
Cancel 987
Cancel 988
Cancel 989
Cancel 990
Cancel 991
Cancel 992
Cancel 993
Cancel 994
Cancel 995
Cancel 996
Cancel 997
Cancel 998
Cancel 999
Cancel 1000
Cancel rejected
Cancel rejected
Cancel rejected
Cancel rejected
Cancel rejected
Cancel rejected
Cancel rejected
Cancel rejected
Cancel rejected
Cancel rejected
Cancel rejected
Cancel rejected
Cancel rejected
Cancel rejected
Cancel rejected
Cancel rejected
Cancel rejected
Cancel rejected
Cancel rejected
Cancel rejected
Cancel rejected
Cancel rejected
Cancel rejected
Cancel rejected
Cancel rejected
Cancel rejected
Cancel rejected
Cancel rejected
Cancel rejected
Cancel rejected
Cancel rejected
Cancel rejected
Cancel rejected
Cancel rejected
Cancel rejected
Cancel rejected
Cancel rejected
Cancel rejected
Cancel rejected
Cancel rejected
Cancel rejected
Cancel rejected
Cancel rejected
Cancel rejected
Cancel rejected
Cancel rejected
Cancel rejected
Cancel rejected
Cancel rejected
Cancel rejected
Cancel rejected
Cancel rejected
Cancel rejected
Cancel rejected
Cancel rejected
Cancel rejected
Cancel rejected
Cancel rejected
Cancel rejected
Cancel rejected
Cancel rejected
Cancel rejected
Cancel rejected
Cancel rejected
Cancel rejected
Cancel rejected
Cancel rejected
Cancel rejected
Cancel rejected
Cancel rejected
Cancel rejected
Cancel rejected
Cancel rejected
Cancel rejected
Cancel rejected
Cancel rejected
Cancel rejected
Cancel rejected
Cancel rejected
Cancel rejected
Cancel rejected
Cancel rejected
Cancel rejected
Cancel rejected
Cancel rejected
Cancel rejected
Cancel rejected
Cancel rejected
Cancel rejected
Cancel rejected
Cancel rejected
Cancel rejected
Cancel rejected
Cancel rejected
Cancel rejected
Cancel rejected
Cancel rejected
Cancel rejected
Cancel rejected
Cancel rejected
Cancel rejected
Cancel rejected
Cancel rejected
Cancel rejected
Cancel rejected
Cancel rejected
Cancel rejected
Cancel rejected
Cancel rejected
Cancel rejected
Cancel rejected
Cancel rejected
Cancel rejected
Cancel rejected
Cancel rejected
Cancel rejected
Cancel rejected
Cancel rejected
Cancel rejected
Cancel rejected
Cancel rejected
Cancel rejected
Cancel rejected
Cancel rejected
Cancel rejected
Cancel rejected
Cancel rejected
Cancel rejected
Cancel rejected
Cancel rejected
Cancel rejected
Cancel rejected
Cancel rejected
Cancel rejected
Cancel rejected
Cancel rejected
Cancel rejected
Cancel rejected
Cancel rejected
Cancel rejected
Cancel rejected
Cancel rejected
Cancel rejected
Cancel rejected
Cancel rejected
Cancel rejected
Cancel rejected
Cancel rejected
Cancel rejected
Cancel rejected
Cancel rejected
Cancel rejected
Cancel rejected
Cancel rejected
Cancel rejected
Cancel rejected
Cancel rejected
Cancel rejected
Cancel rejected
Cancel rejected
Cancel rejected
Cancel rejected
Cancel rejected
Cancel rejected
Cancel rejected
Cancel rejected
Cancel rejected
Cancel rejected
Cancel rejected
Cancel rejected
Cancel rejected
Cancel rejected
Cancel rejected
Cancel rejected
Cancel rejected
Cancel rejected
Cancel rejected
Cancel rejected
Cancel rejected
Cancel rejected
Cancel rejected
Cancel rejected
Cancel rejected
Cancel rejected
Cancel rejected
Cancel rejected
Cancel rejected
Cancel rejected
Cancel rejected
Cancel rejected
Cancel rejected
Cancel rejected
Cancel rejected
Cancel rejected
Cancel rejected
Cancel rejected
Cancel rejected
Cancel rejected
Cancel rejected
Cancel rejected
Cancel rejected
Cancel rejected
Cancel rejected
Cancel rejected
Cancel rejected
Cancel rejected
Cancel rejected
Cancel rejected
Cancel rejected
Cancel rejected
Cancel rejected
Cancel rejected
Cancel rejected
Cancel rejected
Cancel rejected
Cancel rejected
Cancel rejected
Cancel rejected
Cancel rejected
Cancel rejected
Cancel rejected
Cancel rejected
Cancel rejected
Cancel rejected
Cancel rejected
Cancel rejected
Cancel rejected
Cancel rejected
Cancel rejected
Cancel rejected
Cancel rejected
Cancel rejected
Cancel rejected
Cancel rejected
Cancel rejected
Cancel rejected
Cancel rejected
Cancel rejected
Cancel rejected
Cancel rejected
Cancel rejected
Cancel rejected
Cancel rejected
Cancel rejected
Cancel rejected
Cancel rejected
Cancel rejected
Cancel rejected
Cancel rejected
Cancel rejected
Cancel rejected
Cancel rejected
Cancel rejected
Cancel rejected
Cancel rejected
Cancel rejected
Cancel rejected
Cancel rejected
Cancel rejected
Cancel rejected
Cancel rejected
Cancel rejected
Cancel rejected
Cancel rejected
Cancel rejected
Cancel rejected
Cancel rejected
Cancel rejected
Cancel rejected
Cancel rejected
Cancel rejected
Cancel rejected
Cancel rejected
Cancel rejected
Cancel rejected
Cancel rejected
Cancel rejected
Cancel rejected
Cancel rejected
Cancel rejected
Cancel rejected
Cancel rejected
Cancel rejected
Cancel rejected
Cancel rejected
Cancel rejected
Cancel rejected
Cancel rejected
Cancel rejected
Cancel rejected
Cancel rejected
Cancel rejected
Cancel rejected
Cancel rejected
Cancel rejected
Cancel rejected
Cancel rejected
Cancel rejected
Cancel rejected
Cancel rejected
Cancel rejected
Cancel rejected
Cancel rejected
Cancel rejected
Cancel rejected
Cancel rejected
Cancel rejected
Cancel rejected
Cancel rejected
Cancel rejected
Cancel rejected
Cancel rejected
Cancel rejected
Cancel rejected
Cancel rejected
Cancel rejected
Cancel rejected
Cancel rejected
Cancel rejected
Cancel rejected
Cancel rejected
Cancel rejected
Cancel rejected
Cancel rejected
Cancel rejected
Cancel rejected
Cancel rejected
Cancel rejected
Cancel rejected
Cancel rejected
Cancel rejected
Cancel rejected
Cancel rejected
Cancel rejected
Cancel rejected
Cancel rejected
Cancel rejected
Cancel rejected
Cancel rejected
Cancel rejected
Cancel rejected
Cancel rejected
Cancel rejected
Cancel rejected
Cancel rejected
Cancel rejected
Cancel rejected
Cancel rejected
Cancel rejected
Cancel rejected
Cancel rejected
Cancel rejected
Cancel rejected
Cancel rejected
Cancel rejected
Cancel rejected
Cancel rejected
Cancel rejected
Cancel rejected
Cancel rejected
Cancel rejected
Cancel rejected
Cancel rejected
Cancel rejected
Cancel rejected
Cancel rejected
Cancel rejected
Cancel rejected
Cancel rejected
Cancel rejected
Cancel rejected
Cancel rejected
Cancel rejected
Cancel rejected
Cancel rejected
Cancel rejected
Cancel rejected
Cancel rejected
Cancel rejected
Cancel rejected
Cancel rejected
Cancel rejected
Cancel rejected
Cancel rejected
Cancel rejected
Cancel rejected
Cancel rejected
Cancel rejected
Cancel rejected
Cancel rejected
Cancel rejected
Cancel rejected
Cancel rejected
Cancel rejected
Cancel rejected
Cancel rejected
Cancel rejected
Cancel rejected
Cancel rejected
Cancel rejected
Cancel rejected
Cancel rejected
Cancel rejected
Cancel rejected
Cancel rejected
Cancel rejected
Cancel rejected
Cancel rejected
Cancel rejected
Cancel rejected
Cancel rejected
Cancel rejected
Cancel rejected
Cancel rejected
Cancel rejected
Cancel rejected
Cancel rejected
Cancel rejected
Cancel rejected
Cancel rejected
Cancel rejected
Cancel rejected
Cancel rejected
Cancel rejected
Cancel rejected
Cancel rejected
Cancel rejected
Cancel rejected
Cancel rejected
Cancel rejected
Cancel rejected
Cancel rejected
Cancel rejected
Cancel rejected
Cancel rejected
Cancel rejected
Cancel rejected
Cancel rejected
Cancel rejected
Cancel rejected
Cancel rejected
Cancel rejected
Cancel rejected
Cancel rejected
Cancel rejected
Cancel rejected
Cancel rejected
Cancel rejected
Cancel rejected
Cancel rejected
Cancel rejected
Cancel rejected
Cancel rejected
Cancel rejected
Cancel rejected
Cancel rejected
Cancel rejected
Cancel rejected
Cancel rejected
Cancel rejected
Cancel rejected
Cancel rejected
Cancel rejected
Cancel rejected
Cancel rejected
Cancel rejected
Cancel rejected
Cancel rejected
Cancel rejected
Cancel rejected
Cancel rejected
Cancel rejected
Cancel rejected
Cancel rejected
Cancel rejected
Cancel rejected
Cancel rejected
Cancel rejected
Cancel rejected
Cancel rejected
Cancel rejected
Cancel rejected
Cancel rejected
Cancel rejected
Cancel rejected
Cancel rejected
Cancel rejected
Cancel rejected
Cancel rejected
Cancel rejected
Cancel rejected
Cancel rejected
Cancel rejected
Cancel rejected
Cancel rejected
Cancel rejected
Cancel rejected
Cancel rejected
Cancel rejected
Cancel rejected
